%!PS-Adobe-3.0 EPSF-3.0
%%Creator: EpsGraphics 1.0.0 by Thomas Abeel, http://www.sourceforge.net/epsgraphics/
%%Title: GeoGebra, http://www.geogebra.org/
%%CreationDate: Wed Jul 01 17:00:48 CDT 2015
%%BoundingBox: 0 0 165 41
%%DocumentData: Clean7Bit
%%LanguageLevel: 2
%%DocumentProcessColors: Black
%%ColorUsage: Color
%%Origin: 0 0
%%Pages: 1
%%Page: 1 1
%%EndComments

gsave
0.0 41.0 translate
0.0 0.0 0.0 setrgbcolor
0.0 0.0 0.0 setrgbcolor
gsave
newpath
0.0 -0.0 moveto
165.54330708661382 -0.0 lineto
165.54330708661382 -41.95275590551172 lineto
0.0 -41.95275590551172 lineto
0.0 -0.0 lineto
closepath
clip
newpath
1.0 1.0 1.0 setrgbcolor
newpath
0.0 -0.0 moveto
165.54330708661382 -0.0 lineto
165.54330708661382 -41.95275590551172 lineto
0.0 -41.95275590551172 lineto
0.0 -0.0 lineto
closepath
fill
newpath
0.0 0.0 0.0 setrgbcolor
1.0 setlinewidth
10.0 setmiterlimit
1 setlinejoin
1 setlinecap
[ ] 0 setdash
newpath
-2.8346456692913327 -8.746906636670385 moveto
168.37795275590514 -41.35883014623154 lineto
stroke
newpath
0.0 0.0 0.0 setrgbcolor
1.0 setlinewidth
10.0 setmiterlimit
1 setlinejoin
1 setlinecap
[ ] 0 setdash
newpath
48.1889763779527 -18.1417322834645 moveto
48.1889763779527 -19.0810512280586 47.427507920972005 -19.8425196850393 46.4881889763779 -19.8425196850393 curveto
45.54887003178379 -19.8425196850393 44.7874015748031 -19.0810512280586 44.7874015748031 -18.1417322834645 curveto
44.7874015748031 -17.202413338870397 45.54887003178379 -16.4409448818897 46.4881889763779 -16.4409448818897 curveto
47.427507920972005 -16.4409448818897 48.1889763779527 -17.202413338870397 48.1889763779527 -18.1417322834645 curveto
closepath
fill
newpath
0.0 0.0 0.0 setrgbcolor
1.0 setlinewidth
10.0 setmiterlimit
1 setlinejoin
1 setlinecap
[ ] 0 setdash
newpath
48.1889763779527 -18.1417322834645 moveto
48.1889763779527 -19.0810512280586 47.427507920972005 -19.8425196850393 46.4881889763779 -19.8425196850393 curveto
45.54887003178379 -19.8425196850393 44.7874015748031 -19.0810512280586 44.7874015748031 -18.1417322834645 curveto
44.7874015748031 -17.202413338870397 45.54887003178379 -16.4409448818897 46.4881889763779 -16.4409448818897 curveto
47.427507920972005 -16.4409448818897 48.1889763779527 -17.202413338870397 48.1889763779527 -18.1417322834645 curveto
closepath
stroke
newpath
0.0 0.0 0.0 setrgbcolor
1.0 setlinewidth
10.0 setmiterlimit
1 setlinejoin
1 setlinecap
[ ] 0 setdash
newpath
51.08562992125973 -10.443897637795253 moveto
50.17322834645658 -12.906496062992098 lineto
51.99803149606288 -12.906496062992098 lineto
51.08562992125973 -10.443897637795253 lineto
closepath
50.70472440944871 -9.779527559055097 moveto
51.46653543307075 -9.779527559055097 lineto
53.3533464566928 -14.74015748031493 lineto
52.6535433070865 -14.74015748031493 lineto
52.2017716535432 -13.464566929133829 lineto
49.96948818897627 -13.464566929133829 lineto
49.51771653543296 -14.74015748031493 lineto
48.80905511811013 -14.74015748031493 lineto
50.70472440944871 -9.779527559055097 lineto
closepath
fill
newpath
0.0 0.0 0.0 setrgbcolor
1.0 setlinewidth
10.0 setmiterlimit
1 setlinejoin
1 setlinecap
[ ] 0 setdash
newpath
83.90551181102357 -24.944881889763693 moveto
83.90551181102357 -25.8842008343578 83.14404335404286 -26.645669291338493 82.20472440944877 -26.645669291338493 curveto
81.26540546485467 -26.645669291338493 80.50393700787397 -25.8842008343578 80.50393700787397 -24.944881889763693 curveto
80.50393700787397 -24.00556294516959 81.26540546485467 -23.244094488188892 82.20472440944877 -23.244094488188892 curveto
83.14404335404286 -23.244094488188892 83.90551181102357 -24.00556294516959 83.90551181102357 -24.944881889763693 curveto
closepath
fill
newpath
0.0 0.0 0.0 setrgbcolor
1.0 setlinewidth
10.0 setmiterlimit
1 setlinejoin
1 setlinecap
[ ] 0 setdash
newpath
83.90551181102357 -24.944881889763693 moveto
83.90551181102357 -25.8842008343578 83.14404335404286 -26.645669291338493 82.20472440944877 -26.645669291338493 curveto
81.26540546485467 -26.645669291338493 80.50393700787397 -25.8842008343578 80.50393700787397 -24.944881889763693 curveto
80.50393700787397 -24.00556294516959 81.26540546485467 -23.244094488188892 82.20472440944877 -23.244094488188892 curveto
83.14404335404286 -23.244094488188892 83.90551181102357 -24.00556294516959 83.90551181102357 -24.944881889763693 curveto
closepath
stroke
newpath
0.0 0.0 0.0 setrgbcolor
1.0 setlinewidth
10.0 setmiterlimit
1 setlinejoin
1 setlinecap
[ ] 0 setdash
newpath
85.81003937007856 -19.178149606299172 moveto
85.81003937007856 -20.99409448818893 lineto
86.89074803149587 -20.99409448818893 lineto
87.2509842627042 -20.99409448818893 87.5182086640131 -20.918799210354404 87.69242125984233 -20.768208661417276 curveto
87.86663386345947 -20.617618105748228 87.95374015748013 -20.388779522983064 87.95374015748013 -20.081692913385783 curveto
87.95374015748013 -19.76870077807364 87.86663385567157 -19.53986220256839 87.69242125984233 -19.395177165354287 curveto
87.5182086562252 -19.25049212167226 87.25098424660038 -19.178149606299172 86.89074803149587 -19.178149606299172 curveto
85.81003937007856 -19.178149606299172 lineto
closepath
85.81003937007856 -17.13188976377949 moveto
85.81003937007856 -18.628937007873976 lineto
86.80216535433053 -18.628937007873976 lineto
87.13287402560373 -18.628937007873976 87.3779527582813 -18.566929132010248 87.53740157480296 -18.44291338582673 curveto
87.69685039845254 -18.31889763409928 87.77657480314942 -18.132874012052035 87.77657480314942 -17.884842519685 curveto
87.77657480314942 -17.630905504243074 87.69685039132462 -17.44192913201025 87.53740157480296 -17.317913385826735 curveto
87.37795275115337 -17.193897634099283 87.1328740108199 -17.13188976377949 86.80216535433053 -17.13188976377949 curveto
85.81003937007856 -17.13188976377949 lineto
closepath
85.13681102362186 -16.582677165354294 moveto
86.85531496062973 -16.582677165354294 lineto
87.3690945035006 -16.582677165354294 87.76328740566657 -16.688976381120682 88.03789370078721 -16.90157480314957 curveto
88.31250000818372 -17.114173234682347 88.44980314960611 -17.415354336516558 88.44980314960611 -17.805118110236183 curveto
88.44980314960611 -18.112204733561306 88.37893700576186 -18.355807089298104 88.23720472440925 -18.535925196850354 curveto
88.09547243672074 -18.716043312454513 87.88877952351092 -18.82677165415926 87.61712598425179 -18.86811023622043 curveto
87.94783465552499 -18.93897638006469 88.20472441217659 -19.086614176572265 88.38779527559036 -19.311023622047202 curveto
88.57086614718803 -19.53543307755402 88.66240157480296 -19.815944886905662 88.66240157480296 -20.152559055118065 curveto
88.66240157480296 -20.595472454144684 88.5118110191339 -20.937992129592168 88.21062992125965 -21.180118110236176 curveto
87.90944880992156 -21.42224410170406 87.47834644833281 -21.543307086614128 86.91732283464547 -21.543307086614128 curveto
85.13681102362186 -21.543307086614128 lineto
85.13681102362186 -16.582677165354294 lineto
closepath
fill
newpath
0.0 0.0 0.0 setrgbcolor
1.0 setlinewidth
10.0 setmiterlimit
1 setlinejoin
1 setlinecap
[ ] 0 setdash
newpath
113.07623574224235 -30.501210257614876 moveto
113.07623574224235 -31.44052920220898 112.31476728526164 -32.20199765918968 111.37544834066755 -32.20199765918968 curveto
110.43612939607344 -32.20199765918968 109.67466093909275 -31.44052920220898 109.67466093909275 -30.501210257614876 curveto
109.67466093909275 -29.561891313020773 110.43612939607344 -28.80042285604008 111.37544834066755 -28.80042285604008 curveto
112.31476728526164 -28.80042285604008 113.07623574224235 -29.561891313020773 113.07623574224235 -30.501210257614876 curveto
closepath
fill
newpath
0.0 0.0 0.0 setrgbcolor
1.0 setlinewidth
10.0 setmiterlimit
1 setlinejoin
1 setlinecap
[ ] 0 setdash
newpath
113.07623574224235 -30.501210257614876 moveto
113.07623574224235 -31.44052920220898 112.31476728526164 -32.20199765918968 111.37544834066755 -32.20199765918968 curveto
110.43612939607344 -32.20199765918968 109.67466093909275 -31.44052920220898 109.67466093909275 -30.501210257614876 curveto
109.67466093909275 -29.561891313020773 110.43612939607344 -28.80042285604008 111.37544834066755 -28.80042285604008 curveto
112.31476728526164 -28.80042285604008 113.07623574224235 -29.561891313020773 113.07623574224235 -30.501210257614876 curveto
closepath
stroke
newpath
0.0 0.0 0.0 setrgbcolor
1.0 setlinewidth
10.0 setmiterlimit
1 setlinejoin
1 setlinecap
[ ] 0 setdash
newpath
117.77066929133832 -22.632874015747984 moveto
117.77066929133832 -23.341535433070817 lineto
117.54035432384448 -23.128937001538038 117.29822834267249 -22.970964565389103 117.04429133858243 -22.867618110236172 curveto
116.79035432314049 -22.764271650463293 116.51870078308937 -22.712598425196802 116.22933070866117 -22.712598425196802 curveto
115.66240155790709 -22.712598425196802 115.2283464522047 -22.886811028813938 114.92716535433046 -23.23523622047239 curveto
114.62598424299236 -23.583661427706662 114.47539370078715 -24.085629931027675 114.47539370078715 -24.74114173228341 curveto
114.47539370078715 -25.390748050855784 114.6259842564562 -25.88976378471944 114.92716535433046 -26.238188976377895 curveto
115.22834646566855 -26.586614183612166 115.6624015832508 -26.760826771653484 116.22933070866117 -26.760826771653484 curveto
116.51870079602523 -26.760826771653484 116.79035433449236 -26.70767716377029 117.04429133858243 -26.601377952755847 curveto
117.29822835402436 -26.49507873698946 117.54035433414036 -26.33858267408533 117.77066929133832 -26.13188976377947 curveto
117.77066929133832 -26.83169291338577 lineto
117.53444881185746 -26.991141737035353 117.28494094096568 -27.11072834764462 117.02214566929109 -27.190452755905454 curveto
116.75935038586863 -27.270177167730242 116.48326771222322 -27.31003937007868 116.19389763779502 -27.31003937007868 curveto
115.43799210345625 -27.31003937007868 114.8444881825522 -27.079724402584837 114.4133858267714 -26.619094488188917 curveto
113.98228345171883 -26.158464553201235 113.76673228346432 -25.53248030316871 113.76673228346432 -24.74114173228341 curveto
113.76673228346432 -23.9438976140355 113.98228347099061 -23.31496062305729 114.4133858267714 -22.85433070866137 curveto
114.84448820182398 -22.393700773673686 115.43799213724786 -22.163385826771606 116.19389763779502 -22.163385826771606 curveto
116.48917323714609 -22.163385826771606 116.76820866533302 -22.203248032684 117.03100393700763 -22.282972440944835 curveto
117.29379922043009 -22.362696852769623 117.54035433414036 -22.47933071094934 117.77066929133832 -22.632874015747984 curveto
closepath
fill
newpath
grestore
grestore
showpage

%%EOF