%!PS-Adobe-3.0 EPSF-3.0
%%Creator: EpsGraphics 1.0.0 by Thomas Abeel, http://www.sourceforge.net/epsgraphics/
%%Title: GeoGebra, http://www.geogebra.org/
%%CreationDate: Wed Jun 24 14:36:11 CDT 2015
%%BoundingBox: 0 0 134 116
%%DocumentData: Clean7Bit
%%LanguageLevel: 2
%%DocumentProcessColors: Black
%%ColorUsage: Color
%%Origin: 0 0
%%Pages: 1
%%Page: 1 1
%%EndComments

gsave
0.0 116.0 translate
0.0 0.0 0.0 setrgbcolor
0.0 0.0 0.0 setrgbcolor
gsave
newpath
0.0 -0.0 moveto
134.92913385826773 -0.0 lineto
134.92913385826773 -116.78740157480317 lineto
0.0 -116.78740157480317 lineto
0.0 -0.0 lineto
closepath
clip
newpath
1.0 1.0 1.0 setrgbcolor
newpath
0.0 -0.0 moveto
134.92913385826773 -0.0 lineto
134.92913385826773 -116.78740157480317 lineto
0.0 -116.78740157480317 lineto
0.0 -0.0 lineto
closepath
fill
newpath
0.0 0.0 0.0 setrgbcolor
1.0 setlinewidth
10.0 setmiterlimit
1 setlinejoin
1 setlinecap
[ ] 0 setdash
newpath
21.543307086614174 -70.86614173228347 moveto
41.38582677165354 -43.65354330708661 lineto
stroke
newpath
0.0 0.0 0.0 setrgbcolor
1.0 setlinewidth
10.0 setmiterlimit
1 setlinejoin
1 setlinecap
[ ] 0 setdash
newpath
41.38582677165354 -43.65354330708661 moveto
91.2755905511811 -28.91338582677164 lineto
stroke
newpath
0.0 0.0 0.0 setrgbcolor
1.0 setlinewidth
10.0 setmiterlimit
1 setlinejoin
1 setlinecap
[ ] 0 setdash
newpath
91.2755905511811 -28.91338582677164 moveto
103.74803149606298 -58.96062992125984 lineto
stroke
newpath
0.0 0.0 0.0 setrgbcolor
1.0 setlinewidth
10.0 setmiterlimit
1 setlinejoin
1 setlinecap
[ ] 0 setdash
newpath
103.74803149606298 -58.96062992125984 moveto
89.00787401574803 -77.66929133858268 lineto
stroke
newpath
0.0 0.0 0.0 setrgbcolor
1.0 setlinewidth
10.0 setmiterlimit
1 setlinejoin
1 setlinecap
[ ] 0 setdash
newpath
89.00787401574803 -77.66929133858268 moveto
74.83464566929133 -63.49606299212598 lineto
stroke
newpath
0.0 0.0 0.0 setrgbcolor
1.0 setlinewidth
10.0 setmiterlimit
1 setlinejoin
1 setlinecap
[ ] 0 setdash
newpath
74.83464566929133 -63.49606299212598 moveto
46.488188976377955 -100.34645669291338 lineto
stroke
newpath
0.0 0.0 0.0 setrgbcolor
1.0 setlinewidth
10.0 setmiterlimit
1 setlinejoin
1 setlinecap
[ ] 0 setdash
newpath
46.488188976377955 -100.34645669291338 moveto
49.88976377952755 -18.708661417322837 lineto
stroke
newpath
grestore
grestore
showpage

%%EOF