%!PS-Adobe-3.0 EPSF-3.0
%%Creator: EpsGraphics 1.0.0 by Thomas Abeel, http://www.sourceforge.net/epsgraphics/
%%Title: GeoGebra, http://www.geogebra.org/
%%CreationDate: Mon Jun 22 11:35:01 CDT 2015
%%BoundingBox: 0 0 119 121
%%DocumentData: Clean7Bit
%%LanguageLevel: 2
%%DocumentProcessColors: Black
%%ColorUsage: Color
%%Origin: 0 0
%%Pages: 1
%%Page: 1 1
%%EndComments

gsave
0.0 121.0 translate
0.0 0.0 0.0 setrgbcolor
0.0 0.0 0.0 setrgbcolor
gsave
newpath
0.0 -0.0 moveto
119.62204724409445 -0.0 lineto
119.62204724409445 -121.88976377952751 lineto
0.0 -121.88976377952751 lineto
0.0 -0.0 lineto
closepath
clip
newpath
1.0 1.0 1.0 setrgbcolor
newpath
0.0 -0.0 moveto
119.62204724409445 -0.0 lineto
119.62204724409445 -121.88976377952751 lineto
0.0 -121.88976377952751 lineto
0.0 -0.0 lineto
closepath
fill
newpath
0.0 0.0 0.0 setrgbcolor
1.0 setlinewidth
10.0 setmiterlimit
1 setlinejoin
1 setlinecap
[ ] 0 setdash
newpath
24.377952755905515 -46.48818897637792 moveto
48.75590551181103 -101.48031496062985 lineto
stroke
newpath
0.0 0.0 0.0 setrgbcolor
1.0 setlinewidth
10.0 setmiterlimit
1 setlinejoin
1 setlinecap
[ ] 0 setdash
newpath
99.21259842519684 -106.01574803149597 moveto
28.535433070866144 -1.6113095110150297E-14 lineto
stroke
newpath
0.0 0.0 0.0 setrgbcolor
1.0 setlinewidth
10.0 setmiterlimit
1 setlinejoin
1 setlinecap
[ ] 0 setdash
newpath
64.39960629921258 -59.20866141732281 moveto
63.053149606299186 -61.01574803149604 lineto
64.46161417322833 -62.92913385826769 lineto
63.74409448818895 -62.92913385826769 lineto
62.66338582677163 -61.46751968503934 lineto
61.582677165354305 -62.92913385826769 lineto
60.8562992125984 -62.92913385826769 lineto
62.300196850393675 -60.9803149606299 lineto
60.9803149606299 -59.20866141732281 lineto
61.69783464566927 -59.20866141732281 lineto
62.68996062992124 -60.53740157480313 lineto
63.67322834645667 -59.20866141732281 lineto
64.39960629921258 -59.20866141732281 lineto
closepath
fill
newpath
0.0 0.0 0.0 setrgbcolor
1.0 setlinewidth
10.0 setmiterlimit
1 setlinejoin
1 setlinecap
[ ] 0 setdash
newpath
26.078740157480315 -46.48818897637792 moveto
26.078740157480315 -47.427507920972026 25.317271700499617 -48.18897637795272 24.377952755905515 -48.18897637795272 curveto
23.43863381131141 -48.18897637795272 22.67716535433071 -47.427507920972026 22.67716535433071 -46.48818897637792 curveto
22.67716535433071 -45.548870031783814 23.43863381131141 -44.78740157480311 24.377952755905515 -44.78740157480311 curveto
25.317271700499617 -44.78740157480311 26.078740157480315 -45.548870031783814 26.078740157480315 -46.48818897637792 curveto
closepath
fill
newpath
0.0 0.0 0.0 setrgbcolor
1.0 setlinewidth
10.0 setmiterlimit
1 setlinejoin
1 setlinecap
[ ] 0 setdash
newpath
26.078740157480315 -46.48818897637792 moveto
26.078740157480315 -47.427507920972026 25.317271700499617 -48.18897637795272 24.377952755905515 -48.18897637795272 curveto
23.43863381131141 -48.18897637795272 22.67716535433071 -47.427507920972026 22.67716535433071 -46.48818897637792 curveto
22.67716535433071 -45.548870031783814 23.43863381131141 -44.78740157480311 24.377952755905515 -44.78740157480311 curveto
25.317271700499617 -44.78740157480311 26.078740157480315 -45.548870031783814 26.078740157480315 -46.48818897637792 curveto
closepath
stroke
newpath
0.0 0.0 0.0 setrgbcolor
1.0 setlinewidth
10.0 setmiterlimit
1 setlinejoin
1 setlinecap
[ ] 0 setdash
newpath
28.97539370078739 -38.790354330708645 moveto
28.06299212598424 -41.2529527559055 lineto
29.887795275590538 -41.2529527559055 lineto
28.97539370078739 -38.790354330708645 lineto
closepath
28.594488188976367 -38.12598425196849 moveto
29.35629921259841 -38.12598425196849 lineto
31.24311023622046 -43.08661417322833 lineto
30.54330708661416 -43.08661417322833 lineto
30.091535433070852 -41.81102362204723 lineto
27.859251968503926 -41.81102362204723 lineto
27.40748031496062 -43.08661417322833 lineto
26.698818897637786 -43.08661417322833 lineto
28.594488188976367 -38.12598425196849 lineto
closepath
fill
newpath
0.0 0.0 0.0 setrgbcolor
1.0 setlinewidth
10.0 setmiterlimit
1 setlinejoin
1 setlinecap
[ ] 0 setdash
newpath
50.45669291338583 -101.48031496062985 moveto
50.45669291338583 -102.41963390522395 49.695224456405136 -103.18110236220465 48.75590551181103 -103.18110236220465 curveto
47.81658656721692 -103.18110236220465 47.05511811023622 -102.41963390522395 47.05511811023622 -101.48031496062985 curveto
47.05511811023622 -100.54099601603575 47.81658656721692 -99.77952755905504 48.75590551181103 -99.77952755905504 curveto
49.695224456405136 -99.77952755905504 50.45669291338583 -100.54099601603575 50.45669291338583 -101.48031496062985 curveto
closepath
fill
newpath
0.0 0.0 0.0 setrgbcolor
1.0 setlinewidth
10.0 setmiterlimit
1 setlinejoin
1 setlinecap
[ ] 0 setdash
newpath
50.45669291338583 -101.48031496062985 moveto
50.45669291338583 -102.41963390522395 49.695224456405136 -103.18110236220465 48.75590551181103 -103.18110236220465 curveto
47.81658656721692 -103.18110236220465 47.05511811023622 -102.41963390522395 47.05511811023622 -101.48031496062985 curveto
47.05511811023622 -100.54099601603575 47.81658656721692 -99.77952755905504 48.75590551181103 -99.77952755905504 curveto
49.695224456405136 -99.77952755905504 50.45669291338583 -100.54099601603575 50.45669291338583 -101.48031496062985 curveto
closepath
stroke
newpath
0.0 0.0 0.0 setrgbcolor
1.0 setlinewidth
10.0 setmiterlimit
1 setlinejoin
1 setlinecap
[ ] 0 setdash
newpath
52.36122047244093 -95.71358267716532 moveto
52.36122047244093 -97.52952755905508 lineto
53.441929133858245 -97.52952755905508 lineto
53.802165365066564 -97.52952755905508 54.06938976637547 -97.45423228122056 54.243602362204705 -97.30364173228342 curveto
54.41781496582184 -97.15305117661437 54.5049212598425 -96.9242125938492 54.5049212598425 -96.61712598425193 curveto
54.5049212598425 -96.30413384893978 54.41781495803393 -96.07529527343453 54.243602362204705 -95.93061023622043 curveto
54.06938975858756 -95.7859251925384 53.802165348962745 -95.71358267716532 53.441929133858245 -95.71358267716532 curveto
52.36122047244093 -95.71358267716532 lineto
closepath
52.36122047244093 -93.66732283464563 moveto
52.36122047244093 -95.16437007874012 lineto
53.35334645669289 -95.16437007874012 lineto
53.6840551279661 -95.16437007874012 53.92913386064367 -95.10236220287639 54.088582677165334 -94.97834645669288 curveto
54.24803150081491 -94.85433070496542 54.327755905511786 -94.66830708291818 54.327755905511786 -94.42027559055114 curveto
54.327755905511786 -94.16633857510921 54.248031493686995 -93.97736220287639 54.088582677165334 -93.85334645669288 curveto
53.92913385351575 -93.72933070496542 53.68405511318227 -93.66732283464563 53.35334645669289 -93.66732283464563 curveto
52.36122047244093 -93.66732283464563 lineto
closepath
51.68799212598423 -93.11811023622043 moveto
53.406496062992105 -93.11811023622043 lineto
53.92027560586298 -93.11811023622043 54.31446850802894 -93.22440945198682 54.589074803149586 -93.4370078740157 curveto
54.86368111054609 -93.64960630554849 55.00098425196848 -93.95078740738269 55.00098425196848 -94.34055118110233 curveto
55.00098425196848 -94.64763780442745 54.930118108124226 -94.89124016016424 54.78838582677163 -95.07135826771649 curveto
54.64665353908311 -95.25147638332065 54.43996062587328 -95.3622047250254 54.16830708661415 -95.40354330708658 curveto
54.499015757887356 -95.47440945093084 54.755905514538966 -95.6220472474384 54.938976377952734 -95.84645669291335 curveto
55.122047249550405 -96.07086614842017 55.213582677165334 -96.3513779577718 55.213582677165334 -96.68799212598421 curveto
55.213582677165334 -97.13090552501083 55.06299212149628 -97.47342520045831 54.76181102362202 -97.71555118110233 curveto
54.46062991228393 -97.9576771725702 54.02952755069519 -98.07874015748027 53.46850393700785 -98.07874015748027 curveto
51.68799212598423 -98.07874015748027 lineto
51.68799212598423 -93.11811023622043 lineto
closepath
fill
newpath
0.0 0.0 0.0 setrgbcolor
1.0 setlinewidth
10.0 setmiterlimit
1 setlinejoin
1 setlinecap
[ ] 0 setdash
newpath
100.91338582677164 -106.01574803149597 moveto
100.91338582677164 -106.95506697609007 100.15191736979094 -107.71653543307077 99.21259842519684 -107.71653543307077 curveto
98.27327948060274 -107.71653543307077 97.51181102362204 -106.95506697609007 97.51181102362204 -106.01574803149597 curveto
97.51181102362204 -105.07642908690187 98.27327948060274 -104.31496062992117 99.21259842519684 -104.31496062992117 curveto
100.15191736979094 -104.31496062992117 100.91338582677164 -105.07642908690187 100.91338582677164 -106.01574803149597 curveto
closepath
fill
newpath
0.0 0.0 0.0 setrgbcolor
1.0 setlinewidth
10.0 setmiterlimit
1 setlinejoin
1 setlinecap
[ ] 0 setdash
newpath
100.91338582677164 -106.01574803149597 moveto
100.91338582677164 -106.95506697609007 100.15191736979094 -107.71653543307077 99.21259842519684 -107.71653543307077 curveto
98.27327948060274 -107.71653543307077 97.51181102362204 -106.95506697609007 97.51181102362204 -106.01574803149597 curveto
97.51181102362204 -105.07642908690187 98.27327948060274 -104.31496062992117 99.21259842519684 -104.31496062992117 curveto
100.15191736979094 -104.31496062992117 100.91338582677164 -105.07642908690187 100.91338582677164 -106.01574803149597 curveto
closepath
stroke
newpath
0.0 0.0 0.0 setrgbcolor
1.0 setlinewidth
10.0 setmiterlimit
1 setlinejoin
1 setlinecap
[ ] 0 setdash
newpath
102.81791338582673 -98.20275590551176 moveto
102.81791338582673 -100.07185039370074 lineto
103.6594488188976 -100.07185039370074 lineto
103.97244095420974 -100.07185039370074 104.21456693168578 -99.99064960387919 104.3858267716535 -99.82824803149602 curveto
104.55708661927713 -99.66584645185293 104.64271653543302 -99.43405511362225 104.64271653543302 -99.13287401574799 curveto
104.64271653543302 -98.83759841639692 104.55708661162122 -98.60875984009967 104.3858267716535 -98.44635826771649 curveto
104.21456692402987 -98.2839566880734 103.97244094021791 -98.20275590551176 103.6594488188976 -98.20275590551176 curveto
102.81791338582673 -98.20275590551176 lineto
closepath
102.14468503937003 -97.65354330708658 moveto
103.6594488188976 -97.65354330708658 lineto
104.22047245766464 -97.65354330708658 104.64271653965697 -97.77903543681079 104.92618110236216 -98.03001968503933 curveto
105.2096456777392 -98.28100394448775 105.35137795275587 -98.64862205445998 105.35137795275587 -99.13287401574799 curveto
105.35137795275587 -99.62303151067078 105.20964566506736 -99.99360236594464 104.92618110236216 -100.24458661417319 curveto
104.64271652698513 -100.4955708736216 104.22047243258494 -100.62106299212594 103.6594488188976 -100.62106299212594 curveto
102.81791338582673 -100.62106299212594 lineto
102.81791338582673 -102.61417322834642 lineto
102.14468503937003 -102.61417322834642 lineto
102.14468503937003 -97.65354330708658 lineto
closepath
fill
newpath
grestore
grestore
showpage

%%EOF