%!PS-Adobe-3.0 EPSF-3.0
%%Creator: EpsGraphics 1.0.0 by Thomas Abeel, http://www.sourceforge.net/epsgraphics/
%%Title: GeoGebra, http://www.geogebra.org/
%%CreationDate: Mon Jun 22 11:28:44 CDT 2015
%%BoundingBox: 0 0 123 109
%%DocumentData: Clean7Bit
%%LanguageLevel: 2
%%DocumentProcessColors: Black
%%ColorUsage: Color
%%Origin: 0 0
%%Pages: 1
%%Page: 1 1
%%EndComments

gsave
0.0 109.0 translate
0.0 0.0 0.0 setrgbcolor
0.0 0.0 0.0 setrgbcolor
gsave
newpath
0.0 -0.0 moveto
123.59055118110241 -0.0 lineto
123.59055118110241 -109.98425196850398 lineto
0.0 -109.98425196850398 lineto
0.0 -0.0 lineto
closepath
clip
newpath
1.0 1.0 1.0 setrgbcolor
newpath
0.0 -0.0 moveto
123.59055118110241 -0.0 lineto
123.59055118110241 -109.98425196850398 lineto
0.0 -109.98425196850398 lineto
0.0 -0.0 lineto
closepath
fill
newpath
0.0 0.0 0.0 setrgbcolor
0.0 0.0 0.0 setrgbcolor
1.0 setlinewidth
10.0 setmiterlimit
1 setlinejoin
1 setlinecap
[ ] 0 setdash
newpath
168.69952451312855 -4.791894889301237 moveto
168.69952451312855 -45.070501900149075 136.04726203466274 -77.72276437861493 95.76865502381492 -77.72276437861493 curveto
55.49004801296711 -77.72276437861493 22.837785534501297 -45.070501900149075 22.837785534501297 -4.791894889301237 curveto
22.837785534501297 35.48671212154661 55.49004801296711 68.13897460001245 95.76865502381492 68.13897460001245 curveto
136.04726203466274 68.13897460001245 168.69952451312855 35.48671212154661 168.69952451312855 -4.791894889301237 curveto
closepath
stroke
newpath
0.0 0.0 0.0 setrgbcolor
1.0 setlinewidth
10.0 setmiterlimit
1 setlinejoin
1 setlinecap
[ ] 0 setdash
newpath
62.28248031496065 48.93307086614175 moveto
62.28248031496065 48.35728346456695 lineto
62.10531495535 48.457677168346315 61.931102359652776 48.53149606369614 61.759842519685066 48.57874015748033 curveto
61.588582672061435 48.6259842533765 61.41437007610021 48.649606299212614 61.23720472440947 48.649606299212614 curveto
60.83562990929201 48.649606299212614 60.52559054792516 48.524114169488406 60.30708661417325 48.27312992125986 curveto
60.08858267065345 48.02214566181144 59.97933070866144 47.66929133180677 59.97933070866144 47.21456692913387 curveto
59.97933070866144 46.75984250613322 60.08858268042134 46.40698818523644 60.30708661417325 46.15600393700789 curveto
60.52559055769305 45.90501967755947 60.8356299272438 45.77952755905513 61.23720472440947 45.77952755905513 curveto
61.41437008402012 45.77952755905513 61.58858267971735 45.80314960700322 61.759842519685066 45.85039370078742 curveto
61.93110236730869 45.89763779668359 62.10531496326991 45.96850393841587 62.28248031496065 46.062992125984266 curveto
62.28248031496065 45.496062992126 lineto
62.11122046733703 45.41929133629472 61.93405511538229 45.36023621985647 61.750984251968525 45.318897637795295 curveto
61.56791338037086 45.277559053886144 61.37303149298305 45.25688976377955 61.16633858267719 45.25688976377955 curveto
60.60531494391014 45.25688976377955 60.15944881396972 45.43257874539344 59.82874015748034 45.78395669291341 curveto
59.49803148620713 46.13533465614119 59.332677165354355 46.61220473338536 59.332677165354355 47.21456692913387 curveto
59.332677165354355 47.81692915181008 59.499507878987714 48.292322839837624 59.833169291338606 48.64074803149608 curveto
60.166830718605326 48.98917323873036 60.625984260680426 49.16338582677167 61.210629921259866 49.16338582677167 curveto
61.39370079285754 49.16338582677167 61.575295278274545 49.14419291281385 61.75541338582679 49.10580708661419 curveto
61.93553150143095 49.06742125869855 62.11122047499294 49.00984251854107 62.28248031496065 48.93307086614175 curveto
closepath
fill
newpath
0.0 0.0 0.0 setrgbcolor
0.0 0.0 0.0 setrgbcolor
1.0 setlinewidth
10.0 setmiterlimit
1 setlinejoin
1 setlinecap
[ ] 0 setdash
newpath
96.5421040497469 -99.4432925108466 moveto
96.5421040497469 -137.14446464252825 65.97926537317726 -167.70730331909786 28.278093241495668 -167.70730331909786 curveto
-9.423078890185932 -167.70730331909786 -39.98591756675555 -137.14446464252825 -39.98591756675555 -99.4432925108466 curveto
-39.98591756675555 -61.74212037916497 -9.423078890185932 -31.179281702595325 28.278093241495668 -31.179281702595325 curveto
65.97926537317726 -31.179281702595325 96.5421040497469 -61.74212037916497 96.5421040497469 -99.4432925108466 curveto
closepath
stroke
newpath
0.0 0.0 0.0 setrgbcolor
1.0 setlinewidth
10.0 setmiterlimit
1 setlinejoin
1 setlinecap
[ ] 0 setdash
newpath
-2.577755905511812 -49.5708661417323 moveto
-2.577755905511812 -47.55118110236222 lineto
-1.9665354330708669 -47.55118110236222 lineto
-1.9665354330708669 -52.72440944881892 lineto
-2.577755905511812 -52.72440944881892 lineto
-2.577755905511812 -52.166338582677184 lineto
-2.707677169226287 -52.384842526196984 -2.870078743061448 -52.54872047406895 -3.064960629921261 -52.6579724409449 curveto
-3.2598425254929735 -52.7672244127048 -3.4960629962619376 -52.82185039370081 -3.773622047244096 -52.82185039370081 curveto
-4.222440958257737 -52.82185039370081 -4.588582681389307 -52.64173227809665 -4.87204724409449 -52.28149606299215 curveto
-5.155511819471526 -51.92125983178383 -5.297244094488191 -51.44881888892591 -5.297244094488191 -50.86417322834647 curveto
-5.297244094488191 -50.27952754163134 -5.155511806799672 -49.808562986802066 -4.87204724409449 -49.45127952755907 curveto
-4.588582668717454 -49.093996052344266 -4.2224409381939685 -48.91535433070868 -3.773622047244096 -48.91535433070868 curveto
-3.496062983854081 -48.91535433070868 -3.2598425167810743 -48.96850393859187 -3.064960629921261 -49.07480314960632 curveto
-2.8700787343495486 -49.18110236537271 -2.7076771634183543 -49.34645669625736 -2.577755905511812 -49.5708661417323 curveto
closepath
-4.65944881889764 -50.86417322834647 moveto
-4.65944881889764 -51.31299213936012 -4.567913383098805 -51.66584646052089 -4.384842519685041 -51.92273622047246 curveto
-4.201771648087371 -52.1796259919079 -3.947834640829349 -52.308070866141755 -3.6230314960629935 -52.308070866141755 curveto
-3.298228336776806 -52.308070866141755 -3.042814957857954 -52.179625980424035 -2.856791338582678 -51.92273622047246 curveto
-2.6707677109914982 -51.66584644903702 -2.577755905511812 -51.31299211929635 -2.577755905511812 -50.86417322834647 curveto
-2.577755905511812 -50.415354317332834 -2.670767719307402 -50.06397637416882 -2.856791338582678 -49.81003937007876 curveto
-3.042814966173858 -49.55610235463683 -3.298228351296638 -49.42913385826773 -3.6230314960629935 -49.42913385826773 curveto
-3.947834655349181 -49.42913385826773 -4.201771656271277 -49.5561023659887 -4.384842519685041 -49.81003937007876 curveto
-4.56791339128271 -50.06397638552069 -4.65944881889764 -50.4153543373966 -4.65944881889764 -50.86417322834647 curveto
closepath
fill
newpath
0.0 0.0 0.0 setrgbcolor
1.0 setlinewidth
10.0 setmiterlimit
1 setlinejoin
1 setlinecap
[ ] 0 setdash
newpath
-2.8346456692913398 -9.351865799383761 moveto
126.42519685039375 -101.51975350907233 lineto
stroke
newpath
0.0 0.0 0.0 setrgbcolor
1.0 setlinewidth
10.0 setmiterlimit
1 setlinejoin
1 setlinecap
[ ] 0 setdash
newpath
41.261811023622066 -48.02952755905513 moveto
41.261811023622066 -48.47834647006878 41.3533464594209 -48.83120079122955 41.53641732283466 -49.08809055118112 curveto
41.71948819443233 -49.34498032261656 41.973425201690354 -49.473425196850414 42.29822834645671 -49.473425196850414 curveto
42.623031505742894 -49.473425196850414 42.87844488466175 -49.344980311132694 43.06446850393702 -49.08809055118112 curveto
43.250492131528205 -48.83120077974568 43.34350393700789 -48.478346450005006 43.34350393700789 -48.02952755905513 curveto
43.34350393700789 -47.580708648041494 43.2504921232123 -47.229330704877476 43.06446850393702 -46.97539370078742 curveto
42.87844487634584 -46.721456685345494 42.62303149122306 -46.5944881889764 42.29822834645671 -46.5944881889764 curveto
41.97342518717052 -46.5944881889764 41.71948818624843 -46.721456696697366 41.53641732283466 -46.97539370078742 curveto
41.353346451236995 -47.22933071622935 41.261811023622066 -47.58070866810526 41.261811023622066 -48.02952755905513 curveto
closepath
43.34350393700789 -49.331692913385844 moveto
43.213582673293416 -49.55019685690564 43.051181099458255 -49.71407480477761 42.856299212598444 -49.82332677165356 curveto
42.661417317026725 -49.93257874341346 42.42519684625776 -49.987204724409466 42.14763779527561 -49.987204724409466 curveto
41.69881888426196 -49.987204724409466 41.33267716113039 -49.80708660880531 41.049212598425214 -49.44685039370081 curveto
40.765748023048175 -49.08661416249249 40.62401574803151 -48.61417321963458 40.62401574803151 -48.02952755905513 curveto
40.62401574803151 -47.44488187234 40.76574803572003 -46.973917317510725 41.049212598425214 -46.61663385826773 curveto
41.332677173802246 -46.259350383052926 41.698818904325734 -46.08070866141734 42.14763779527561 -46.08070866141734 curveto
42.42519685866562 -46.08070866141734 42.661417325738626 -46.13385826930053 42.856299212598444 -46.24015748031498 curveto
43.051181108170155 -46.34645669608137 43.21358267910135 -46.51181102696602 43.34350393700789 -46.73622047244096 curveto
43.34350393700789 -46.169291338582696 lineto
43.954724409448836 -46.169291338582696 lineto
43.954724409448836 -51.30708661417325 lineto
43.34350393700789 -51.30708661417325 lineto
43.34350393700789 -49.331692913385844 lineto
closepath
fill
newpath
0.0 0.0 0.0 setrgbcolor
1.0 setlinewidth
10.0 setmiterlimit
1 setlinejoin
1 setlinecap
[ ] 0 setdash
newpath
29.48031496062992 -31.181102362204737 moveto
29.48031496062992 -32.120421306798846 28.71884650364922 -32.88188976377954 27.779527559055115 -32.88188976377954 curveto
26.84020861446101 -32.88188976377954 26.07874015748031 -32.120421306798846 26.07874015748031 -31.181102362204737 curveto
26.07874015748031 -30.24178341761063 26.84020861446101 -29.480314960629933 27.779527559055115 -29.480314960629933 curveto
28.71884650364922 -29.480314960629933 29.48031496062992 -30.24178341761063 29.48031496062992 -31.181102362204737 curveto
closepath
fill
newpath
0.0 0.0 0.0 setrgbcolor
1.0 setlinewidth
10.0 setmiterlimit
1 setlinejoin
1 setlinecap
[ ] 0 setdash
newpath
29.48031496062992 -31.181102362204737 moveto
29.48031496062992 -32.120421306798846 28.71884650364922 -32.88188976377954 27.779527559055115 -32.88188976377954 curveto
26.84020861446101 -32.88188976377954 26.07874015748031 -32.120421306798846 26.07874015748031 -31.181102362204737 curveto
26.07874015748031 -30.24178341761063 26.84020861446101 -29.480314960629933 27.779527559055115 -29.480314960629933 curveto
28.71884650364922 -29.480314960629933 29.48031496062992 -30.24178341761063 29.48031496062992 -31.181102362204737 curveto
closepath
stroke
newpath
0.0 0.0 0.0 setrgbcolor
1.0 setlinewidth
10.0 setmiterlimit
1 setlinejoin
1 setlinecap
[ ] 0 setdash
newpath
30.109251968503948 -19.514763779527566 moveto
29.1968503937008 -21.977362204724418 lineto
31.0216535433071 -21.977362204724418 lineto
30.109251968503948 -19.514763779527566 lineto
closepath
29.728346456692925 -18.850393700787407 moveto
30.490157480314974 -18.850393700787407 lineto
32.37696850393702 -23.81102362204725 lineto
31.67716535433072 -23.81102362204725 lineto
31.225393700787414 -22.53543307086615 lineto
28.993110236220485 -22.53543307086615 lineto
28.541338582677177 -23.81102362204725 lineto
27.83267716535434 -23.81102362204725 lineto
29.728346456692925 -18.850393700787407 lineto
closepath
fill
newpath
0.0 0.0 0.0 setrgbcolor
1.0 setlinewidth
10.0 setmiterlimit
1 setlinejoin
1 setlinecap
[ ] 0 setdash
newpath
94.67716535433071 -77.66929133858272 moveto
94.67716535433071 -78.60861028317682 93.91569689735 -79.37007874015752 92.97637795275591 -79.37007874015752 curveto
92.0370590081618 -79.37007874015752 91.27559055118111 -78.60861028317682 91.27559055118111 -77.66929133858272 curveto
91.27559055118111 -76.72997239398862 92.0370590081618 -75.96850393700792 92.97637795275591 -75.96850393700792 curveto
93.91569689735 -75.96850393700792 94.67716535433071 -76.72997239398862 94.67716535433071 -77.66929133858272 curveto
closepath
fill
newpath
0.0 0.0 0.0 setrgbcolor
1.0 setlinewidth
10.0 setmiterlimit
1 setlinejoin
1 setlinecap
[ ] 0 setdash
newpath
94.67716535433071 -77.66929133858272 moveto
94.67716535433071 -78.60861028317682 93.91569689735 -79.37007874015752 92.97637795275591 -79.37007874015752 curveto
92.0370590081618 -79.37007874015752 91.27559055118111 -78.60861028317682 91.27559055118111 -77.66929133858272 curveto
91.27559055118111 -76.72997239398862 92.0370590081618 -75.96850393700792 92.97637795275591 -75.96850393700792 curveto
93.91569689735 -75.96850393700792 94.67716535433071 -76.72997239398862 94.67716535433071 -77.66929133858272 curveto
closepath
stroke
newpath
0.0 0.0 0.0 setrgbcolor
1.0 setlinewidth
10.0 setmiterlimit
1 setlinejoin
1 setlinecap
[ ] 0 setdash
newpath
88.64468503937012 -86.07578740157484 moveto
88.64468503937012 -87.8917322834646 lineto
89.72539370078744 -87.8917322834646 lineto
90.08562993199575 -87.8917322834646 90.35285433330466 -87.81643700563008 90.5270669291339 -87.66584645669295 curveto
90.70127953275103 -87.51525590102389 90.78838582677169 -87.28641731825873 90.78838582677169 -86.97933070866145 curveto
90.78838582677169 -86.66633857334931 90.70127952496313 -86.43749999784406 90.5270669291339 -86.29281496062995 curveto
90.35285432551676 -86.14812991694792 90.08562991589194 -86.07578740157484 89.72539370078744 -86.07578740157484 curveto
88.64468503937012 -86.07578740157484 lineto
closepath
88.64468503937012 -84.02952755905515 moveto
88.64468503937012 -85.52657480314964 lineto
89.63681102362209 -85.52657480314964 lineto
89.9675196948953 -85.52657480314964 90.21259842757286 -85.46456692728592 90.37204724409452 -85.3405511811024 curveto
90.5314960677441 -85.21653542937494 90.61122047244098 -85.0305118073277 90.61122047244098 -84.78248031496067 curveto
90.61122047244098 -84.52854329951873 90.53149606061618 -84.33956692728592 90.37204724409452 -84.2155511811024 curveto
90.21259842044495 -84.09153542937494 89.96751968011147 -84.02952755905515 89.63681102362209 -84.02952755905515 curveto
88.64468503937012 -84.02952755905515 lineto
closepath
87.97145669291342 -83.48031496062995 moveto
89.68996062992129 -83.48031496062995 lineto
90.20374017279217 -83.48031496062995 90.59793307495814 -83.58661417639634 90.87253937007877 -83.79921259842523 curveto
91.14714567747528 -84.01181102995801 91.28444881889767 -84.31299213179221 91.28444881889767 -84.70275590551184 curveto
91.28444881889767 -85.00984252883697 91.21358267505342 -85.25344488457377 91.07185039370083 -85.43356299212601 curveto
90.9301181060123 -85.61368110773017 90.72342519280248 -85.72440944943493 90.45177165354335 -85.7657480314961 curveto
90.78248032481656 -85.83661417534036 91.03937008146816 -85.98425197184793 91.22244094488192 -86.20866141732287 curveto
91.40551181647959 -86.43307087282969 91.49704724409452 -86.71358268218133 91.49704724409452 -87.05019685039373 curveto
91.49704724409452 -87.49311024942035 91.34645668842546 -87.83562992486783 91.04527559055121 -88.07775590551185 curveto
90.74409447921312 -88.31988189697972 90.31299211762438 -88.44094488188979 89.75196850393704 -88.44094488188979 curveto
87.97145669291342 -88.44094488188979 lineto
87.97145669291342 -83.48031496062995 lineto
closepath
fill
newpath
grestore
grestore
showpage

%%EOF