%!PS-Adobe-3.0 EPSF-3.0
%%Creator: EpsGraphics 1.0.0 by Thomas Abeel, http://www.sourceforge.net/epsgraphics/
%%Title: GeoGebra, http://www.geogebra.org/
%%CreationDate: Wed Jun 24 14:39:32 CDT 2015
%%BoundingBox: 0 0 235 123
%%DocumentData: Clean7Bit
%%LanguageLevel: 2
%%DocumentProcessColors: Black
%%ColorUsage: Color
%%Origin: 0 0
%%Pages: 1
%%Page: 1 1
%%EndComments

gsave
0.0 123.0 translate
0.0 0.0 0.0 setrgbcolor
0.0 0.0 0.0 setrgbcolor
gsave
newpath
0.0 -0.0 moveto
235.84251968503895 -0.0 lineto
235.84251968503895 -123.02362204724388 lineto
0.0 -123.02362204724388 lineto
0.0 -0.0 lineto
closepath
clip
newpath
1.0 1.0 1.0 setrgbcolor
newpath
0.0 -0.0 moveto
235.84251968503895 -0.0 lineto
235.84251968503895 -123.02362204724388 lineto
0.0 -123.02362204724388 lineto
0.0 -0.0 lineto
closepath
fill
newpath
0.0 0.0 0.0 setrgbcolor
1.0 setlinewidth
10.0 setmiterlimit
1 setlinejoin
1 setlinecap
[ ] 0 setdash
newpath
27.212598425196855 -78.80314960629903 moveto
11.905511811023622 -58.960629921259695 lineto
stroke
newpath
0.0 0.0 0.0 setrgbcolor
1.0 setlinewidth
10.0 setmiterlimit
1 setlinejoin
1 setlinecap
[ ] 0 setdash
newpath
27.779527559055122 -39.685039370078634 moveto
11.905511811023622 -58.960629921259695 lineto
stroke
newpath
0.0 0.0 0.0 setrgbcolor
1.0 setlinewidth
10.0 setmiterlimit
1 setlinejoin
1 setlinecap
[ ] 0 setdash
newpath
27.779527559055122 -39.685039370078634 moveto
61.22834645669292 -40.81889763779517 lineto
stroke
newpath
0.0 0.0 0.0 setrgbcolor
1.0 setlinewidth
10.0 setmiterlimit
1 setlinejoin
1 setlinecap
[ ] 0 setdash
newpath
61.22834645669292 -40.81889763779517 moveto
60.094488188976385 -91.2755905511809 lineto
stroke
newpath
0.0 0.0 0.0 setrgbcolor
1.0 setlinewidth
10.0 setmiterlimit
1 setlinejoin
1 setlinecap
[ ] 0 setdash
newpath
60.094488188976385 -91.2755905511809 moveto
27.212598425196855 -78.80314960629903 lineto
stroke
newpath
0.0 0.0 0.0 setrgbcolor
1.0 setlinewidth
10.0 setmiterlimit
1 setlinejoin
1 setlinecap
[ ] 0 setdash
newpath
104.88188976377954 -29.480314960629837 moveto
84.47244094488188 -56.69291338582663 lineto
stroke
newpath
0.0 0.0 0.0 setrgbcolor
1.0 setlinewidth
10.0 setmiterlimit
1 setlinejoin
1 setlinecap
[ ] 0 setdash
newpath
84.47244094488188 -56.69291338582663 moveto
149.10236220472441 -44.22047244094477 lineto
stroke
newpath
0.0 0.0 0.0 setrgbcolor
1.0 setlinewidth
10.0 setmiterlimit
1 setlinejoin
1 setlinecap
[ ] 0 setdash
newpath
149.10236220472441 -44.22047244094477 moveto
122.45669291338584 -86.74015748031476 lineto
stroke
newpath
0.0 0.0 0.0 setrgbcolor
1.0 setlinewidth
10.0 setmiterlimit
1 setlinejoin
1 setlinecap
[ ] 0 setdash
newpath
122.45669291338584 -86.74015748031476 moveto
104.88188976377954 -29.480314960629837 lineto
stroke
newpath
0.0 0.0 0.0 setrgbcolor
1.0 setlinewidth
10.0 setmiterlimit
1 setlinejoin
1 setlinecap
[ ] 0 setdash
newpath
196.7244094488189 -83.33858267716516 moveto
192.75590551181102 -104.88188976377927 lineto
stroke
newpath
0.0 0.0 0.0 setrgbcolor
1.0 setlinewidth
10.0 setmiterlimit
1 setlinejoin
1 setlinecap
[ ] 0 setdash
newpath
192.75590551181102 -104.88188976377927 moveto
165.54330708661416 -105.44881889763754 lineto
stroke
newpath
0.0 0.0 0.0 setrgbcolor
1.0 setlinewidth
10.0 setmiterlimit
1 setlinejoin
1 setlinecap
[ ] 0 setdash
newpath
165.54330708661416 -105.44881889763754 moveto
179.1496062992126 -39.685039370078634 lineto
stroke
newpath
0.0 0.0 0.0 setrgbcolor
1.0 setlinewidth
10.0 setmiterlimit
1 setlinejoin
1 setlinecap
[ ] 0 setdash
newpath
179.1496062992126 -39.685039370078634 moveto
166.6771653543307 -23.811023622047184 lineto
stroke
newpath
0.0 0.0 0.0 setrgbcolor
1.0 setlinewidth
10.0 setmiterlimit
1 setlinejoin
1 setlinecap
[ ] 0 setdash
newpath
166.6771653543307 -23.811023622047184 moveto
219.96850393700788 -22.110236220472384 lineto
stroke
newpath
0.0 0.0 0.0 setrgbcolor
1.0 setlinewidth
10.0 setmiterlimit
1 setlinejoin
1 setlinecap
[ ] 0 setdash
newpath
219.96850393700788 -22.110236220472384 moveto
182.55118110236222 -66.89763779527543 lineto
stroke
newpath
0.0 0.0 0.0 setrgbcolor
1.0 setlinewidth
10.0 setmiterlimit
1 setlinejoin
1 setlinecap
[ ] 0 setdash
newpath
182.55118110236222 -66.89763779527543 moveto
196.7244094488189 -83.33858267716516 lineto
stroke
newpath
grestore
grestore
showpage

%%EOF