%!PS-Adobe-3.0 EPSF-3.0
%%Creator: EpsGraphics 1.0.0 by Thomas Abeel, http://www.sourceforge.net/epsgraphics/
%%Title: GeoGebra, http://www.geogebra.org/
%%CreationDate: Wed Jun 24 14:54:50 CDT 2015
%%BoundingBox: 0 0 291 120
%%DocumentData: Clean7Bit
%%LanguageLevel: 2
%%DocumentProcessColors: Black
%%ColorUsage: Color
%%Origin: 0 0
%%Pages: 1
%%Page: 1 1
%%EndComments

gsave
0.0 120.0 translate
0.0 0.0 0.0 setrgbcolor
0.0 0.0 0.0 setrgbcolor
gsave
newpath
0.0 -0.0 moveto
291.40157480314974 -0.0 lineto
291.40157480314974 -120.1889763779528 lineto
0.0 -120.1889763779528 lineto
0.0 -0.0 lineto
closepath
clip
newpath
1.0 1.0 1.0 setrgbcolor
newpath
0.0 -0.0 moveto
291.40157480314974 -0.0 lineto
291.40157480314974 -120.1889763779528 lineto
0.0 -120.1889763779528 lineto
0.0 -0.0 lineto
closepath
fill
newpath
0.5019608 0.5019608 0.5019608 setrgbcolor
newpath
30.27841709868667 -34.858111154052715 moveto
32.85324127021038 -39.904766530239186 37.77197709992849 -43.337968690419395 43.396969503524495 -44.01465950588959 curveto
45.428382756716466 -27.128536838731396 lineto
closepath
fill
newpath
0.5019608 0.5019608 0.5019608 setrgbcolor
1.0 setlinewidth
10.0 setmiterlimit
1 setlinejoin
1 setlinecap
[ ] 0 setdash
newpath
30.27841709868667 -34.858111154052715 moveto
32.85324127021038 -39.904766530239186 37.77197709992849 -43.337968690419395 43.396969503524495 -44.01465950588959 curveto
45.428382756716466 -27.128536838731396 lineto
closepath
stroke
newpath
0.5019608 0.5019608 0.5019608 setrgbcolor
1.0 setlinewidth
10.0 setmiterlimit
1 setlinejoin
1 setlinecap
[ ] 0 setdash
newpath
57.381108237673324 -59.736776936536536 moveto
55.56430848319613 -53.05354926828115 49.876460291527586 -48.13944869850069 43.00026837451098 -47.31223764081447 curveto
40.96885512131902 -64.19836030797268 lineto
closepath
fill
newpath
0.5019608 0.5019608 0.5019608 setrgbcolor
1.0 setlinewidth
10.0 setmiterlimit
1 setlinejoin
1 setlinecap
[ ] 0 setdash
newpath
57.381108237673324 -59.736776936536536 moveto
55.56430848319613 -53.05354926828115 49.876460291527586 -48.13944869850069 43.00026837451098 -47.31223764081447 curveto
40.96885512131902 -64.19836030797268 lineto
closepath
stroke
newpath
0.5019608 0.5019608 0.5019608 setrgbcolor
1.0 setlinewidth
10.0 setmiterlimit
1 setlinejoin
1 setlinecap
[ ] 0 setdash
newpath
127.34426822349525 -50.61084412864421 moveto
128.7744898642475 -55.759642035352364 133.60554407379342 -59.21098044428823 138.93993504118706 -58.8948683869612 curveto
138.26919570276385 -47.576142051069596 lineto
closepath
fill
newpath
0.5019608 0.5019608 0.5019608 setrgbcolor
1.0 setlinewidth
10.0 setmiterlimit
1 setlinejoin
1 setlinecap
[ ] 0 setdash
newpath
127.34426822349525 -50.61084412864421 moveto
128.7744898642475 -55.759642035352364 133.60554407379342 -59.21098044428823 138.93993504118706 -58.8948683869612 curveto
138.26919570276385 -47.576142051069596 lineto
closepath
stroke
newpath
0.5019608 0.5019608 0.5019608 setrgbcolor
1.0 setlinewidth
10.0 setmiterlimit
1 setlinejoin
1 setlinecap
[ ] 0 setdash
newpath
139.78549204223393 -73.16364277962727 moveto
130.79884067155737 -73.69618508307475 123.78372703412073 -81.13931570995263 123.78372703412069 -90.14173228346465 curveto
140.79160104986875 -90.14173228346465 lineto
closepath
fill
newpath
0.5019608 0.5019608 0.5019608 setrgbcolor
1.0 setlinewidth
10.0 setmiterlimit
1 setlinejoin
1 setlinecap
[ ] 0 setdash
newpath
139.78549204223393 -73.16364277962727 moveto
130.79884067155737 -73.69618508307475 123.78372703412073 -81.13931570995263 123.78372703412069 -90.14173228346465 curveto
140.79160104986875 -90.14173228346465 lineto
closepath
stroke
newpath
0.5019608 0.5019608 0.5019608 setrgbcolor
1.0 setlinewidth
10.0 setmiterlimit
1 setlinejoin
1 setlinecap
[ ] 0 setdash
newpath
228.38095513179738 -38.008478248595495 moveto
228.96081905324084 -41.79464855919695 231.04842458410434 -45.18492445853215 234.16826049986494 -47.40707468905262 curveto
237.2880964156255 -49.6292249195731 241.174505743588 -50.49403129190814 244.94224880067262 -49.80450968669004 curveto
242.3908288169403 -35.86282191843848 lineto
closepath
fill
newpath
0.5019608 0.5019608 0.5019608 setrgbcolor
1.0 setlinewidth
10.0 setmiterlimit
1 setlinejoin
1 setlinecap
[ ] 0 setdash
newpath
228.38095513179738 -38.008478248595495 moveto
228.96081905324084 -41.79464855919695 231.04842458410434 -45.18492445853215 234.16826049986494 -47.40707468905262 curveto
237.2880964156255 -49.6292249195731 241.174505743588 -50.49403129190814 244.94224880067262 -49.80450968669004 curveto
242.3908288169403 -35.86282191843848 lineto
closepath
stroke
newpath
0.5019608 0.5019608 0.5019608 setrgbcolor
1.0 setlinewidth
10.0 setmiterlimit
1 setlinejoin
1 setlinecap
[ ] 0 setdash
newpath
236.9027249309289 -74.93435885607262 moveto
237.2518916782926 -78.39916734914266 239.03368134965325 -81.56022389319163 241.8171059272386 -83.65291663987195 curveto
244.600530504824 -85.74560938655227 248.13209271956524 -86.57934869296298 251.55756099574083 -85.95246560974131 curveto
249.3123114100564 -73.68378037367992 lineto
closepath
fill
newpath
0.5019608 0.5019608 0.5019608 setrgbcolor
3.0 setlinewidth
10.0 setmiterlimit
1 setlinejoin
1 setlinecap
[ ] 0 setdash
newpath
236.9027249309289 -74.93435885607262 moveto
237.2518916782926 -78.39916734914266 239.03368134965325 -81.56022389319163 241.8171059272386 -83.65291663987195 curveto
244.600530504824 -85.74560938655227 248.13209271956524 -86.57934869296298 251.55756099574083 -85.95246560974131 curveto
249.3123114100564 -73.68378037367992 lineto
closepath
stroke
newpath
0.5019608 0.5019608 0.5019608 setrgbcolor
1.0 setlinewidth
10.0 setmiterlimit
1 setlinejoin
1 setlinecap
[ ] 0 setdash
newpath
236.9027249309289 -74.93435885607262 moveto
237.2518916782926 -78.39916734914266 239.03368134965325 -81.56022389319163 241.8171059272386 -83.65291663987195 curveto
244.600530504824 -85.74560938655227 248.13209271956524 -86.57934869296298 251.55756099574083 -85.95246560974131 curveto
249.3123114100564 -73.68378037367992 lineto
closepath
stroke
newpath
0.0 0.0 0.0 setrgbcolor
1.0 setlinewidth
10.0 setmiterlimit
1 setlinejoin
1 setlinecap
[ ] 0 setdash
newpath
13.03937007874016 -43.653543307086665 moveto
68.59842519685039 -15.307086614173251 lineto
stroke
newpath
0.0 0.0 0.0 setrgbcolor
1.0 setlinewidth
10.0 setmiterlimit
1 setlinejoin
1 setlinecap
[ ] 0 setdash
newpath
16.440944881889763 -70.86614173228354 moveto
74.83464566929133 -54.99212598425202 lineto
stroke
newpath
0.0 0.0 0.0 setrgbcolor
1.0 setlinewidth
10.0 setmiterlimit
1 setlinejoin
1 setlinecap
[ ] 0 setdash
newpath
47.05511811023622 -13.606299212598447 moveto
37.98425196850393 -89.00787401574811 lineto
stroke
newpath
0.0 0.0 0.0 setrgbcolor
1.0 setlinewidth
10.0 setmiterlimit
1 setlinejoin
1 setlinecap
[ ] 0 setdash
newpath
115.65354330708661 -53.858267716535494 moveto
176.88188976377953 -36.85039370078745 lineto
stroke
newpath
0.0 0.0 0.0 setrgbcolor
1.0 setlinewidth
10.0 setmiterlimit
1 setlinejoin
1 setlinecap
[ ] 0 setdash
newpath
106.01574803149607 -90.14173228346465 moveto
162.70866141732284 -90.14173228346465 lineto
stroke
newpath
0.0 0.0 0.0 setrgbcolor
1.0 setlinewidth
10.0 setmiterlimit
1 setlinejoin
1 setlinecap
[ ] 0 setdash
newpath
141.7322834645669 -106.01574803149617 moveto
137.19685039370077 -29.480314960629947 lineto
stroke
newpath
0.0 0.0 0.0 setrgbcolor
1.0 setlinewidth
10.0 setmiterlimit
1 setlinejoin
1 setlinecap
[ ] 0 setdash
newpath
213.7322834645669 -40.25196850393706 moveto
276.6614173228346 -30.614173228346502 lineto
stroke
newpath
0.0 0.0 0.0 setrgbcolor
1.0 setlinewidth
10.0 setmiterlimit
1 setlinejoin
1 setlinecap
[ ] 0 setdash
newpath
209.76377952755908 -77.66929133858275 moveto
282.8976377952756 -70.29921259842527 lineto
stroke
newpath
0.0 0.0 0.0 setrgbcolor
1.0 setlinewidth
10.0 setmiterlimit
1 setlinejoin
1 setlinecap
[ ] 0 setdash
newpath
238.11023622047244 -12.47244094488191 moveto
253.98425196850394 -99.21259842519696 lineto
stroke
newpath
grestore
grestore
showpage

%%EOF