%!PS-Adobe-3.0 EPSF-3.0
%%Creator: EpsGraphics 1.0.0 by Thomas Abeel, http://www.sourceforge.net/epsgraphics/
%%Title: GeoGebra, http://www.geogebra.org/
%%CreationDate: Wed Jun 24 14:58:50 CDT 2015
%%BoundingBox: 0 0 62 64
%%DocumentData: Clean7Bit
%%LanguageLevel: 2
%%DocumentProcessColors: Black
%%ColorUsage: Color
%%Origin: 0 0
%%Pages: 1
%%Page: 1 1
%%EndComments

gsave
0.0 64.0 translate
0.0 0.0 0.0 setrgbcolor
0.0 0.0 0.0 setrgbcolor
gsave
newpath
0.0 -0.0 moveto
62.92913385826777 -0.0 lineto
62.92913385826777 -64.62992125984258 lineto
0.0 -64.62992125984258 lineto
0.0 -0.0 lineto
closepath
clip
newpath
1.0 1.0 1.0 setrgbcolor
newpath
0.0 -0.0 moveto
62.92913385826777 -0.0 lineto
62.92913385826777 -64.62992125984258 lineto
0.0 -64.62992125984258 lineto
0.0 -0.0 lineto
closepath
fill
newpath
0.0 0.0 0.0 setrgbcolor
0.0 0.0 0.0 setrgbcolor
1.0 setlinewidth
10.0 setmiterlimit
1 setlinejoin
1 setlinecap
[ ] 0 setdash
newpath
60.93249488783714 -31.748031496063 moveto
60.93249488783714 -47.866165559334945 47.8661655593349 -60.93249488783717 31.748031496062957 -60.93249488783717 curveto
15.629897432791008 -60.93249488783717 2.563568104288778 -47.866165559334945 2.563568104288778 -31.748031496063 curveto
2.563568104288778 -15.629897432791052 15.629897432791008 -2.5635681042888225 31.748031496062957 -2.5635681042888225 curveto
47.8661655593349 -2.5635681042888225 60.93249488783714 -15.629897432791052 60.93249488783714 -31.748031496063 curveto
closepath
stroke
newpath
0.0 0.0 0.0 setrgbcolor
1.0 setlinewidth
10.0 setmiterlimit
1 setlinejoin
1 setlinecap
[ ] 0 setdash
newpath
33.44881889763776 -31.748031496063 moveto
33.44881889763776 -32.687350440657106 32.68735044065706 -33.44881889763781 31.748031496062957 -33.44881889763781 curveto
30.808712551468847 -33.44881889763781 30.047244094488153 -32.687350440657106 30.047244094488153 -31.748031496063 curveto
30.047244094488153 -30.808712551468894 30.808712551468847 -30.047244094488196 31.748031496062957 -30.047244094488196 curveto
32.68735044065706 -30.047244094488196 33.44881889763776 -30.808712551468894 33.44881889763776 -31.748031496063 curveto
closepath
fill
newpath
0.0 0.0 0.0 setrgbcolor
1.0 setlinewidth
10.0 setmiterlimit
1 setlinejoin
1 setlinecap
[ ] 0 setdash
newpath
33.44881889763776 -31.748031496063 moveto
33.44881889763776 -32.687350440657106 32.68735044065706 -33.44881889763781 31.748031496062957 -33.44881889763781 curveto
30.808712551468847 -33.44881889763781 30.047244094488153 -32.687350440657106 30.047244094488153 -31.748031496063 curveto
30.047244094488153 -30.808712551468894 30.808712551468847 -30.047244094488196 31.748031496062957 -30.047244094488196 curveto
32.68735044065706 -30.047244094488196 33.44881889763776 -30.808712551468894 33.44881889763776 -31.748031496063 curveto
closepath
stroke
newpath
0.0 0.0 0.0 setrgbcolor
1.0 setlinewidth
10.0 setmiterlimit
1 setlinejoin
1 setlinecap
[ ] 0 setdash
newpath
36.34547244094491 -24.050196850393718 moveto
35.43307086614176 -26.512795275590573 lineto
37.25787401574806 -26.512795275590573 lineto
36.34547244094491 -24.050196850393718 lineto
closepath
35.96456692913389 -23.385826771653562 moveto
36.72637795275593 -23.385826771653562 lineto
38.613188976377984 -28.346456692913407 lineto
37.91338582677168 -28.346456692913407 lineto
37.46161417322838 -27.070866141732303 lineto
35.22933070866144 -27.070866141732303 lineto
34.77755905511814 -28.346456692913407 lineto
34.0688976377953 -28.346456692913407 lineto
35.96456692913389 -23.385826771653562 lineto
closepath
fill
newpath
grestore
grestore
showpage

%%EOF