%!PS-Adobe-3.0 EPSF-3.0
%%Creator: EpsGraphics 1.0.0 by Thomas Abeel, http://www.sourceforge.net/epsgraphics/
%%Title: GeoGebra, http://www.geogebra.org/
%%CreationDate: Mon Jun 22 11:47:27 CDT 2015
%%BoundingBox: 0 0 214 72
%%DocumentData: Clean7Bit
%%LanguageLevel: 2
%%DocumentProcessColors: Black
%%ColorUsage: Color
%%Origin: 0 0
%%Pages: 1
%%Page: 1 1
%%EndComments

gsave
0.0 72.0 translate
0.0 0.0 0.0 setrgbcolor
0.0 0.0 0.0 setrgbcolor
gsave
newpath
0.0 -0.0 moveto
214.86614173228355 -0.0 lineto
214.86614173228355 -72.5669291338583 lineto
0.0 -72.5669291338583 lineto
0.0 -0.0 lineto
closepath
clip
newpath
1.0 1.0 1.0 setrgbcolor
newpath
0.0 -0.0 moveto
214.86614173228355 -0.0 lineto
214.86614173228355 -72.5669291338583 lineto
0.0 -72.5669291338583 lineto
0.0 -0.0 lineto
closepath
fill
newpath
0.3764706 0.3764706 0.3764706 setrgbcolor
newpath
175.74803149606305 -34.58267716535434 moveto
175.74803149606305 -24.96157116026391 lineto
166.12693197896166 -24.96157116026391 lineto
166.12693197896166 -34.58267716535434 lineto
175.74803149606305 -34.58267716535434 lineto
fill
newpath
0.3764706 0.3764706 0.3764706 setrgbcolor
1.0 setlinewidth
10.0 setmiterlimit
1 setlinejoin
1 setlinecap
[ ] 0 setdash
newpath
175.74803149606305 -34.58267716535434 moveto
175.74803149606305 -24.96157116026391 lineto
166.12693197896166 -24.96157116026391 lineto
166.12693197896166 -34.58267716535434 lineto
175.74803149606305 -34.58267716535434 lineto
stroke
newpath
0.3764706 0.3764706 0.3764706 setrgbcolor
1.0 setlinewidth
10.0 setmiterlimit
1 setlinejoin
1 setlinecap
[ ] 0 setdash
newpath
175.74803149606305 -34.58267716535434 moveto
175.74803149606305 -44.203785333107795 lineto
185.36913101316443 -44.203785333107795 lineto
185.36913101316443 -34.58267716535434 lineto
175.74803149606305 -34.58267716535434 lineto
fill
newpath
0.3764706 0.3764706 0.3764706 setrgbcolor
1.0 setlinewidth
10.0 setmiterlimit
1 setlinejoin
1 setlinecap
[ ] 0 setdash
newpath
175.74803149606305 -34.58267716535434 moveto
175.74803149606305 -44.203785333107795 lineto
185.36913101316443 -44.203785333107795 lineto
185.36913101316443 -34.58267716535434 lineto
175.74803149606305 -34.58267716535434 lineto
stroke
newpath
0.3764706 0.3764706 0.3764706 setrgbcolor
1.0 setlinewidth
10.0 setmiterlimit
1 setlinejoin
1 setlinecap
[ ] 0 setdash
newpath
78.8191281131935 -45.839654235867826 moveto
80.92842156948977 -40.873469642562675 80.55617634018701 -35.20102674547718 77.8159706858534 -30.553082977367037 curveto
63.16474135353334 -39.190748031496035 lineto
closepath
fill
newpath
0.3764706 0.3764706 0.3764706 setrgbcolor
1.0 setlinewidth
10.0 setmiterlimit
1 setlinejoin
1 setlinecap
[ ] 0 setdash
newpath
78.8191281131935 -45.839654235867826 moveto
80.92842156948977 -40.873469642562675 80.55617634018701 -35.20102674547718 77.8159706858534 -30.553082977367037 curveto
63.16474135353334 -39.190748031496035 lineto
closepath
stroke
newpath
0.3764706 0.3764706 0.3764706 setrgbcolor
1.0 setlinewidth
10.0 setmiterlimit
1 setlinejoin
1 setlinecap
[ ] 0 setdash
newpath
47.51035459387317 -32.54184182712424 moveto
45.40106113757689 -37.50802642042938 45.77330636687967 -43.18046931751488 48.51351202121326 -47.828413085625016 curveto
63.16474135353334 -39.190748031496035 lineto
closepath
fill
newpath
0.3764706 0.3764706 0.3764706 setrgbcolor
1.0 setlinewidth
10.0 setmiterlimit
1 setlinejoin
1 setlinecap
[ ] 0 setdash
newpath
47.51035459387317 -32.54184182712424 moveto
45.40106113757689 -37.50802642042938 45.77330636687967 -43.18046931751488 48.51351202121326 -47.828413085625016 curveto
63.16474135353334 -39.190748031496035 lineto
closepath
stroke
newpath
0.0 0.0 0.0 setrgbcolor
1.0 setlinewidth
10.0 setmiterlimit
1 setlinejoin
1 setlinecap
[ ] 0 setdash
newpath
13.606299212598426 -18.141732283464542 moveto
119.05511811023622 -62.929133858267676 lineto
stroke
newpath
0.0 0.0 0.0 setrgbcolor
1.0 setlinewidth
10.0 setmiterlimit
1 setlinejoin
1 setlinecap
[ ] 0 setdash
newpath
96.94488188976378 -19.27559055118108 moveto
20.976377952755904 -64.06299212598421 lineto
stroke
newpath
0.0 0.0 0.0 setrgbcolor
1.0 setlinewidth
10.0 setmiterlimit
1 setlinejoin
1 setlinecap
[ ] 0 setdash
newpath
175.748031496063 -34.582677165354305 moveto
147.4015748031496 -34.582677165354305 lineto
stroke
newpath
0.0 0.0 0.0 setrgbcolor
1.0 setlinewidth
10.0 setmiterlimit
1 setlinejoin
1 setlinecap
[ ] 0 setdash
newpath
175.748031496063 -6.236220472440931 moveto
175.748031496063 -62.92913385826764 lineto
stroke
newpath
0.0 0.0 0.0 setrgbcolor
1.0 setlinewidth
10.0 setmiterlimit
1 setlinejoin
1 setlinecap
[ ] 0 setdash
newpath
204.0944881889764 -34.582677165354305 moveto
175.748031496063 -34.582677165354305 lineto
stroke
newpath
0.0 0.0 0.0 setrgbcolor
1.0 setlinewidth
10.0 setmiterlimit
1 setlinejoin
1 setlinecap
[ ] 0 setdash
newpath
64.86552875510814 -39.190748031496035 moveto
64.86552875510814 -40.13006697609014 64.10406029812745 -40.89153543307084 63.16474135353334 -40.89153543307084 curveto
62.22542240893923 -40.89153543307084 61.46395395195853 -40.13006697609014 61.46395395195853 -39.190748031496035 curveto
61.46395395195853 -38.25142908690193 62.22542240893923 -37.489960629921235 63.16474135353334 -37.489960629921235 curveto
64.10406029812745 -37.489960629921235 64.86552875510814 -38.25142908690193 64.86552875510814 -39.190748031496035 curveto
closepath
fill
newpath
0.0 0.0 0.0 setrgbcolor
1.0 setlinewidth
10.0 setmiterlimit
1 setlinejoin
1 setlinecap
[ ] 0 setdash
newpath
64.86552875510814 -39.190748031496035 moveto
64.86552875510814 -40.13006697609014 64.10406029812745 -40.89153543307084 63.16474135353334 -40.89153543307084 curveto
62.22542240893923 -40.89153543307084 61.46395395195853 -40.13006697609014 61.46395395195853 -39.190748031496035 curveto
61.46395395195853 -38.25142908690193 62.22542240893923 -37.489960629921235 63.16474135353334 -37.489960629921235 curveto
64.10406029812745 -37.489960629921235 64.86552875510814 -38.25142908690193 64.86552875510814 -39.190748031496035 curveto
closepath
stroke
newpath
0.0 0.0 0.0 setrgbcolor
1.0 setlinewidth
10.0 setmiterlimit
1 setlinejoin
1 setlinecap
[ ] 0 setdash
newpath
66.53444881889766 -31.305118110236233 moveto
66.53444881889766 -33.17421259842521 lineto
67.37598425196853 -33.17421259842521 lineto
67.68897638728068 -33.17421259842521 67.93110236475671 -33.09301180860366 68.10236220472443 -32.93061023622049 curveto
68.27362205234806 -32.76820865657739 68.35925196850397 -32.53641731834671 68.35925196850397 -32.23523622047245 curveto
68.35925196850397 -31.939960621121372 68.27362204469215 -31.711122044824133 68.10236220472443 -31.548720472440955 curveto
67.9311023571008 -31.386318892797863 67.68897637328884 -31.305118110236233 67.37598425196853 -31.305118110236233 curveto
66.53444881889766 -31.305118110236233 lineto
closepath
65.86122047244098 -30.755905511811036 moveto
67.37598425196853 -30.755905511811036 lineto
67.93700789073557 -30.755905511811036 68.3592519727279 -30.881397641535244 68.6427165354331 -31.132381889763792 curveto
68.92618111081013 -31.383366149212208 69.0679133858268 -31.75098425918443 69.0679133858268 -32.23523622047245 curveto
69.0679133858268 -32.72539371539524 68.92618109813829 -33.0959645706691 68.6427165354331 -33.34694881889765 curveto
68.35925196005606 -33.59793307834607 67.93700786565587 -33.72342519685041 67.37598425196853 -33.72342519685041 curveto
66.53444881889766 -33.72342519685041 lineto
66.53444881889766 -35.71653543307088 lineto
65.86122047244098 -35.71653543307088 lineto
65.86122047244098 -30.755905511811036 lineto
closepath
fill
newpath
0.0 0.0 0.0 setrgbcolor
1.0 setlinewidth
10.0 setmiterlimit
1 setlinejoin
1 setlinecap
[ ] 0 setdash
newpath
177.4488188976378 -34.582677165354305 moveto
177.4488188976378 -35.52199610994841 176.6873504406571 -36.283464566929105 175.748031496063 -36.283464566929105 curveto
174.8087125514689 -36.283464566929105 174.04724409448818 -35.52199610994841 174.04724409448818 -34.582677165354305 curveto
174.04724409448818 -33.6433582207602 174.8087125514689 -32.8818897637795 175.748031496063 -32.8818897637795 curveto
176.6873504406571 -32.8818897637795 177.4488188976378 -33.6433582207602 177.4488188976378 -34.582677165354305 curveto
closepath
fill
newpath
0.0 0.0 0.0 setrgbcolor
1.0 setlinewidth
10.0 setmiterlimit
1 setlinejoin
1 setlinecap
[ ] 0 setdash
newpath
177.4488188976378 -34.582677165354305 moveto
177.4488188976378 -35.52199610994841 176.6873504406571 -36.283464566929105 175.748031496063 -36.283464566929105 curveto
174.8087125514689 -36.283464566929105 174.04724409448818 -35.52199610994841 174.04724409448818 -34.582677165354305 curveto
174.04724409448818 -33.6433582207602 174.8087125514689 -32.8818897637795 175.748031496063 -32.8818897637795 curveto
176.6873504406571 -32.8818897637795 177.4488188976378 -33.6433582207602 177.4488188976378 -34.582677165354305 curveto
closepath
stroke
newpath
0.0 0.0 0.0 setrgbcolor
1.0 setlinewidth
10.0 setmiterlimit
1 setlinejoin
1 setlinecap
[ ] 0 setdash
newpath
180.69980314960637 -26.6722440944882 moveto
180.20964565468358 -26.6722440944882 179.82135826344864 -26.853838588089115 179.53494094488195 -27.21702755905513 curveto
179.2485236135114 -27.580216546256956 179.10531496062998 -28.077755914927714 179.10531496062998 -28.709645669291348 curveto
179.10531496062998 -29.329724427928614 179.24852362631526 -29.821358273128485 179.53494094488195 -30.1845472440945 curveto
179.8213582762525 -30.547736231296327 180.20964567659533 -30.72933070866143 180.69980314960637 -30.72933070866143 curveto
181.18405513254214 -30.72933070866143 181.56938976804756 -30.547736215060514 181.85580708661425 -30.1845472440945 curveto
182.1422244179848 -29.821358256892673 182.28543307086622 -29.329724400208935 182.28543307086622 -28.709645669291348 curveto
182.28543307086622 -28.077755886680038 182.14222440518094 -27.580216530021143 181.85580708661425 -27.21702755905513 curveto
181.5693897552437 -26.853838571853302 181.1840551108944 -26.6722440944882 180.69980314960637 -26.6722440944882 curveto
closepath
181.63877952755914 -31.09251968503938 moveto
182.52460629921268 -32.05807086614175 lineto
181.7096456692914 -32.05807086614175 lineto
180.97440944881896 -31.260826771653555 lineto
180.9035433049747 -31.26673228364058 180.8489173222627 -31.271161417366848 180.81053149606305 -31.27411417322836 curveto
180.7721456681474 -31.27706692922187 180.7352362199445 -31.278543307086625 180.69980314960637 -31.278543307086625 curveto
180.00295273513782 -31.278543307086625 179.44488188351593 -31.045275583599274 179.02559055118118 -30.578740157480325 curveto
178.60629920010265 -30.11220471050562 178.39665354330717 -29.4891732167306 178.39665354330717 -28.709645669291348 curveto
178.39665354330717 -27.924212575017478 178.60629921884643 -27.298228339504785 179.02559055118118 -26.831692913385837 curveto
179.4448819022597 -26.36515746641113 180.00295276628947 -26.131889763779537 180.69980314960637 -26.131889763779537 curveto
181.3907480520879 -26.131889763779537 181.94438976998353 -26.365157487266888 182.36072834645677 -26.831692913385837 curveto
182.7770669415418 -27.298228360360543 182.9852362204725 -27.92421261012907 182.9852362204725 -28.709645669291348 curveto
182.9852362204725 -29.282480332032446 182.8700787367256 -29.774114179344288 182.63976377952764 -30.1845472440945 curveto
182.4094488120338 -30.5949803271925 182.07578739506295 -30.897637798179566 181.63877952755914 -31.09251968503938 curveto
closepath
fill
newpath
grestore
grestore
showpage

%%EOF