%!PS-Adobe-3.0 EPSF-3.0
%%Creator: EpsGraphics 1.0.0 by Thomas Abeel, http://www.sourceforge.net/epsgraphics/
%%Title: GeoGebra, http://www.geogebra.org/
%%CreationDate: Wed Jul 01 16:56:18 CDT 2015
%%BoundingBox: 0 0 116 63
%%DocumentData: Clean7Bit
%%LanguageLevel: 2
%%DocumentProcessColors: Black
%%ColorUsage: Color
%%Origin: 0 0
%%Pages: 1
%%Page: 1 1
%%EndComments

gsave
0.0 63.0 translate
0.0 0.0 0.0 setrgbcolor
0.0 0.0 0.0 setrgbcolor
gsave
newpath
0.0 -0.0 moveto
116.7874015748031 -0.0 lineto
116.7874015748031 -63.49606299212596 lineto
0.0 -63.49606299212596 lineto
0.0 -0.0 lineto
closepath
clip
newpath
1.0 1.0 1.0 setrgbcolor
newpath
0.0 -0.0 moveto
116.7874015748031 -0.0 lineto
116.7874015748031 -63.49606299212596 lineto
0.0 -63.49606299212596 lineto
0.0 -0.0 lineto
closepath
fill
newpath
0.5019608 0.5019608 0.5019608 setrgbcolor
newpath
32.04062209303779 -37.62513816151151 moveto
32.52492503350457 -34.96147198894421 32.36634769561579 -32.220674475313466 31.578075446664037 -29.6306370859006 curveto
15.30708661417323 -34.58267716535432 lineto
closepath
fill
newpath
0.5019608 0.5019608 0.5019608 setrgbcolor
1.0 setlinewidth
10.0 setmiterlimit
1 setlinejoin
1 setlinecap
[ ] 0 setdash
newpath
32.04062209303779 -37.62513816151151 moveto
32.52492503350457 -34.96147198894421 32.36634769561579 -32.220674475313466 31.578075446664037 -29.6306370859006 curveto
15.30708661417323 -34.58267716535432 lineto
closepath
stroke
newpath
0.0 0.0 0.0 setrgbcolor
1.0 setlinewidth
10.0 setmiterlimit
1 setlinejoin
1 setlinecap
[ ] 0 setdash
newpath
15.30708661417323 -34.58267716535432 moveto
116.78740157480314 -53.03364352183245 lineto
stroke
newpath
0.0 0.0 0.0 setrgbcolor
1.0 setlinewidth
10.0 setmiterlimit
1 setlinejoin
1 setlinecap
[ ] 0 setdash
newpath
37.4793307086614 -45.75295275590549 moveto
36.98917321373861 -45.75295275590549 36.64812991839986 -45.809055119782194 36.45620078740156 -45.92125984251967 curveto
36.26427164782336 -46.033464570273075 36.168307086614156 -46.225393704835334 36.168307086614156 -46.49704724409447 curveto
36.168307086614156 -46.71555118761427 36.24064960845517 -46.88828740346676 36.385334645669275 -47.01525590551179 curveto
36.530019689351306 -47.14222441323276 36.72342520045834 -47.205708661417304 36.96555118110235 -47.205708661417304 curveto
37.308070876349596 -47.205708661417304 37.58120079043752 -47.08612204368011 37.784940944881875 -46.846948818897616 curveto
37.98868110843412 -46.60777558342324 38.09055118110235 -46.2874015688192 38.09055118110235 -45.88582677165353 curveto
38.09055118110235 -45.75295275590549 lineto
37.4793307086614 -45.75295275590549 lineto
closepath
38.70177165354329 -45.496062992125964 moveto
38.70177165354329 -47.62204724409447 lineto
38.09055118110235 -47.62204724409447 lineto
38.09055118110235 -47.0551181102362 lineto
37.94881889341383 -47.279527565743024 37.77460629613262 -47.4463582693445 37.567913385826756 -47.55561023622045 curveto
37.361220466281 -47.66486220798035 37.10728346007897 -47.71948818897636 36.80610236220471 -47.71948818897636 curveto
36.422244083048305 -47.71948818897636 36.1181102328765 -47.61171259521321 35.89370078740156 -47.396161417322816 curveto
35.66929133189474 -47.18061022979653 35.557086614173215 -46.89566928605863 35.557086614173215 -46.54133858267715 curveto
35.557086614173215 -46.122047231598614 35.697342523864975 -45.80610235903674 35.977854330708645 -45.59350393700785 curveto
36.25836615009217 -45.38090550547508 36.6761811106341 -45.27460629921258 37.23129921259841 -45.27460629921258 curveto
38.09055118110235 -45.27460629921258 lineto
38.09055118110235 -45.21259842519683 lineto
38.09055118110235 -44.9291338498198 37.99753936730676 -44.710629918971854 37.81151574803148 -44.55708661417321 curveto
37.6254921204403 -44.40354330251065 37.36712597932401 -44.32677165354329 37.03641732283463 -44.32677165354329 curveto
36.823818891301855 -44.32677165354329 36.615649603263236 -44.35334645748488 36.41190944881888 -44.406496062992105 curveto
36.208169285266635 -44.459645670875304 36.014763776799576 -44.536417324330614 35.831692913385815 -44.63681102362203 curveto
35.831692913385815 -44.069881889763764 lineto
36.05610236889263 -43.981299209958436 36.27312992438379 -43.91633858206115 36.482775590551164 -43.87499999999998 curveto
36.69242126609043 -43.833661416090834 36.89763779826754 -43.81299212598424 37.09842519685038 -43.81299212598424 curveto
37.635826787669345 -43.81299212598424 38.03740157876309 -43.951771657679245 38.3031496062992 -44.2293307086614 curveto
38.56889764571517 -44.506889772051416 38.70177165354329 -44.9291338667156 38.70177165354329 -45.496062992125964 curveto
closepath
fill
newpath
0.0 0.0 0.0 setrgbcolor
1.0 setlinewidth
10.0 setmiterlimit
1 setlinejoin
1 setlinecap
[ ] 0 setdash
newpath
15.30708661417323 -34.58267716535432 moveto
116.7874015748031 -3.6973639164669936 lineto
stroke
newpath
0.0 0.0 0.0 setrgbcolor
1.0 setlinewidth
10.0 setmiterlimit
1 setlinejoin
1 setlinecap
[ ] 0 setdash
newpath
45.83267716535431 -19.116141732283456 moveto
45.83267716535431 -18.667322821269817 45.73966535155872 -18.3159448781058 45.553641732283445 -18.06200787401574 curveto
45.36761810469226 -17.808070858573814 45.115157475562995 -17.68110236220472 44.79625984251967 -17.68110236220472 curveto
44.47145668323348 -17.68110236220472 44.216043304314624 -17.808070869925682 44.03001968503935 -18.06200787401574 curveto
43.84399605744817 -18.31594488945767 43.75098425196849 -18.667322841333583 43.75098425196849 -19.116141732283456 curveto
43.75098425196849 -19.564960643297095 43.843996065764074 -19.917814964457868 44.03001968503935 -20.17470472440944 curveto
44.21604331263053 -20.43159449584488 44.47145669775331 -20.56003937007873 44.79625984251967 -20.56003937007873 curveto
45.115157489818834 -20.56003937007873 45.36761811300817 -20.43159448436101 45.553641732283445 -20.17470472440944 curveto
45.73966535987463 -19.917814952974002 45.83267716535431 -19.56496062323333 45.83267716535431 -19.116141732283456 curveto
closepath
43.75098425196849 -17.822834645669285 moveto
43.88090551568296 -17.598425190162462 44.04330708951812 -17.43307086455774 44.238188976377934 -17.3267716535433 curveto
44.433070871949646 -17.220472437776912 44.6663385867251 -17.167322834645663 44.93799212598423 -17.167322834645663 curveto
45.39271654898489 -17.167322834645663 45.76181102784598 -17.345964572253067 46.045275590551164 -17.703248031496056 curveto
46.328740165928195 -18.060531506710863 46.47047244094486 -18.531496071704016 46.47047244094486 -19.116141732283456 curveto
46.47047244094486 -19.700787418998594 46.32874015325634 -20.173228351824623 46.045275590551164 -20.533464566929126 curveto
45.761811015174125 -20.89370079813744 45.392716528657125 -21.073818897637786 44.93799212598423 -21.073818897637786 curveto
44.66633857458124 -21.073818897637786 44.433070863237745 -21.019192911757838 44.238188976377934 -20.909940944881882 curveto
44.04330708080622 -20.800688973121982 43.88090550987503 -20.636811020366075 43.75098425196849 -20.418307086614163 curveto
43.75098425196849 -20.976377952755897 lineto
43.13976377952754 -20.976377952755897 lineto
43.13976377952754 -15.803149606299206 lineto
43.75098425196849 -15.803149606299206 lineto
43.75098425196849 -17.822834645669285 lineto
closepath
fill
newpath
0.0 0.0 0.0 setrgbcolor
1.0 setlinewidth
10.0 setmiterlimit
1 setlinejoin
1 setlinecap
[ ] 0 setdash
newpath
66.8976377952756 -43.653543307086586 moveto
66.8976377952756 -44.59286225168069 66.1361693382949 -45.354330708661394 65.1968503937008 -45.354330708661394 curveto
64.2575314491067 -45.354330708661394 63.49606299212599 -44.59286225168069 63.49606299212599 -43.653543307086586 curveto
63.49606299212599 -42.71422436249248 64.2575314491067 -41.952755905511786 65.1968503937008 -41.952755905511786 curveto
66.1361693382949 -41.952755905511786 66.8976377952756 -42.71422436249248 66.8976377952756 -43.653543307086586 curveto
closepath
fill
newpath
0.0 0.0 0.0 setrgbcolor
1.0 setlinewidth
10.0 setmiterlimit
1 setlinejoin
1 setlinecap
[ ] 0 setdash
newpath
66.8976377952756 -43.653543307086586 moveto
66.8976377952756 -44.59286225168069 66.1361693382949 -45.354330708661394 65.1968503937008 -45.354330708661394 curveto
64.2575314491067 -45.354330708661394 63.49606299212599 -44.59286225168069 63.49606299212599 -43.653543307086586 curveto
63.49606299212599 -42.71422436249248 64.2575314491067 -41.952755905511786 65.1968503937008 -41.952755905511786 curveto
66.1361693382949 -41.952755905511786 66.8976377952756 -42.71422436249248 66.8976377952756 -43.653543307086586 curveto
closepath
stroke
newpath
0.0 0.0 0.0 setrgbcolor
1.0 setlinewidth
10.0 setmiterlimit
1 setlinejoin
1 setlinecap
[ ] 0 setdash
newpath
58.4557086614173 -51.26279527559053 moveto
57.54330708661415 -53.72539370078738 lineto
59.368110236220446 -53.72539370078738 lineto
58.4557086614173 -51.26279527559053 lineto
closepath
58.074803149606275 -50.59842519685037 moveto
58.83661417322832 -50.59842519685037 lineto
60.72342519685037 -55.559055118110216 lineto
60.02362204724407 -55.559055118110216 lineto
59.571850393700764 -54.28346456692911 lineto
57.33956692913384 -54.28346456692911 lineto
56.88779527559053 -55.559055118110216 lineto
56.1791338582677 -55.559055118110216 lineto
58.074803149606275 -50.59842519685037 lineto
closepath
fill
newpath
0.0 0.0 0.0 setrgbcolor
1.0 setlinewidth
10.0 setmiterlimit
1 setlinejoin
1 setlinecap
[ ] 0 setdash
newpath
17.007874015748033 -34.58267716535432 moveto
17.007874015748033 -35.521996109948425 16.246405558767336 -36.28346456692912 15.30708661417323 -36.28346456692912 curveto
14.367767669579125 -36.28346456692912 13.606299212598428 -35.521996109948425 13.606299212598428 -34.58267716535432 curveto
13.606299212598428 -33.64335822076021 14.367767669579125 -32.88188976377951 15.30708661417323 -32.88188976377951 curveto
16.246405558767336 -32.88188976377951 17.007874015748033 -33.64335822076021 17.007874015748033 -34.58267716535432 curveto
closepath
fill
newpath
0.0 0.0 0.0 setrgbcolor
1.0 setlinewidth
10.0 setmiterlimit
1 setlinejoin
1 setlinecap
[ ] 0 setdash
newpath
17.007874015748033 -34.58267716535432 moveto
17.007874015748033 -35.521996109948425 16.246405558767336 -36.28346456692912 15.30708661417323 -36.28346456692912 curveto
14.367767669579125 -36.28346456692912 13.606299212598428 -35.521996109948425 13.606299212598428 -34.58267716535432 curveto
13.606299212598428 -33.64335822076021 14.367767669579125 -32.88188976377951 15.30708661417323 -32.88188976377951 curveto
16.246405558767336 -32.88188976377951 17.007874015748033 -33.64335822076021 17.007874015748033 -34.58267716535432 curveto
closepath
stroke
newpath
0.0 0.0 0.0 setrgbcolor
1.0 setlinewidth
10.0 setmiterlimit
1 setlinejoin
1 setlinecap
[ ] 0 setdash
newpath
7.006889763779525 -22.801181102362197 moveto
7.006889763779525 -24.67027559055117 lineto
7.848425196850391 -24.67027559055117 lineto
8.161417332162536 -24.67027559055117 8.403543309638582 -24.589074800729623 8.574803149606296 -24.42667322834645 curveto
8.746062997229922 -24.264271648703353 8.831692913385822 -24.03248031047267 8.831692913385822 -23.731299212598415 curveto
8.831692913385822 -23.436023613247336 8.74606298957401 -23.207185036950097 8.574803149606296 -23.04478346456692 curveto
8.40354330198267 -22.882381884923827 8.161417318170697 -22.801181102362197 7.848425196850391 -22.801181102362197 curveto
7.006889763779525 -22.801181102362197 lineto
closepath
6.3336614173228325 -22.251968503937 moveto
7.848425196850391 -22.251968503937 lineto
8.409448835617441 -22.251968503937 8.831692917609773 -22.377460633661208 9.115157480314958 -22.628444881889756 curveto
9.398622055691993 -22.87942914133817 9.540354330708658 -23.247047251310395 9.540354330708658 -23.731299212598415 curveto
9.540354330708658 -24.221456707521206 9.39862204302014 -24.592027562795064 9.115157480314958 -24.84301181102361 curveto
8.83169290493792 -25.09399607047203 8.40944881053773 -25.219488188976367 7.848425196850391 -25.219488188976367 curveto
7.006889763779525 -25.219488188976367 lineto
7.006889763779525 -27.212598425196838 lineto
6.3336614173228325 -27.212598425196838 lineto
6.3336614173228325 -22.251968503937 lineto
closepath
fill
newpath
0.0 0.0 0.0 setrgbcolor
1.0 setlinewidth
10.0 setmiterlimit
1 setlinejoin
1 setlinecap
[ ] 0 setdash
newpath
82.20472440944881 -14.74015748031497 moveto
82.20472440944881 -15.679476424909076 81.44325595246812 -16.440944881889774 80.50393700787401 -16.440944881889774 curveto
79.56461806327992 -16.440944881889774 78.80314960629921 -15.679476424909076 78.80314960629921 -14.74015748031497 curveto
78.80314960629921 -13.800838535720866 79.56461806327992 -13.039370078740168 80.50393700787401 -13.039370078740168 curveto
81.44325595246812 -13.039370078740168 82.20472440944881 -13.800838535720866 82.20472440944881 -14.74015748031497 curveto
closepath
fill
newpath
0.0 0.0 0.0 setrgbcolor
1.0 setlinewidth
10.0 setmiterlimit
1 setlinejoin
1 setlinecap
[ ] 0 setdash
newpath
82.20472440944881 -14.74015748031497 moveto
82.20472440944881 -15.679476424909076 81.44325595246812 -16.440944881889774 80.50393700787401 -16.440944881889774 curveto
79.56461806327992 -16.440944881889774 78.80314960629921 -15.679476424909076 78.80314960629921 -14.74015748031497 curveto
78.80314960629921 -13.800838535720866 79.56461806327992 -13.039370078740168 80.50393700787401 -13.039370078740168 curveto
81.44325595246812 -13.039370078740168 82.20472440944881 -13.800838535720866 82.20472440944881 -14.74015748031497 curveto
closepath
stroke
newpath
0.0 0.0 0.0 setrgbcolor
1.0 setlinewidth
10.0 setmiterlimit
1 setlinejoin
1 setlinecap
[ ] 0 setdash
newpath
72.77066929133855 -8.97342519685039 moveto
72.77066929133855 -10.789370078740154 lineto
73.85137795275588 -10.789370078740154 lineto
74.21161418396419 -10.789370078740154 74.4788385852731 -10.714074800905628 74.65305118110233 -10.5634842519685 curveto
74.82726378471946 -10.412893696299449 74.91437007874012 -10.184055113534285 74.91437007874012 -9.876968503937004 curveto
74.91437007874012 -9.56397636862486 74.82726377693156 -9.335137793119612 74.65305118110233 -9.190452755905508 curveto
74.47883857748519 -9.04576771222348 74.21161416786038 -8.97342519685039 73.85137795275588 -8.97342519685039 curveto
72.77066929133855 -8.97342519685039 lineto
closepath
72.77066929133855 -6.927165354330706 moveto
72.77066929133855 -8.424212598425193 lineto
73.76279527559052 -8.424212598425193 lineto
74.09350394686373 -8.424212598425193 74.3385826795413 -8.362204722561467 74.49803149606296 -8.23818897637795 curveto
74.65748031971255 -8.114173224650497 74.73720472440942 -7.928149602603252 74.73720472440942 -7.680118110236218 curveto
74.73720472440942 -7.4261810947942895 74.65748031258462 -7.237204722561467 74.49803149606296 -7.11318897637795 curveto
74.33858267241338 -6.9891732246504965 74.0935039320799 -6.927165354330706 73.76279527559052 -6.927165354330706 curveto
72.77066929133855 -6.927165354330706 lineto
closepath
72.09744094488187 -6.377952755905509 moveto
73.81594488188973 -6.377952755905509 lineto
74.32972442476061 -6.377952755905509 74.72391732692657 -6.484251971671898 74.99852362204722 -6.696850393700784 curveto
75.27312992944371 -6.909448825233562 75.4104330708661 -7.210629927067773 75.4104330708661 -7.600393700787398 curveto
75.4104330708661 -7.907480324112521 75.33956692702185 -8.15108267984932 75.19783464566926 -8.33120078740157 curveto
75.05610235798075 -8.51131890300573 74.84940944477091 -8.622047244710478 74.57775590551178 -8.66338582677165 curveto
74.908464576785 -8.73425197061591 75.1653543334366 -8.881889767123486 75.34842519685036 -9.106299212598422 curveto
75.53149606844804 -9.330708668105242 75.62303149606296 -9.611220477456884 75.62303149606296 -9.947834645669287 curveto
75.62303149606296 -10.390748044695906 75.47244094039391 -10.733267720143386 75.17125984251966 -10.975393700787397 curveto
74.87007873118155 -11.217519692255282 74.43897636959282 -11.33858267716535 73.87795275590548 -11.33858267716535 curveto
72.09744094488187 -11.33858267716535 lineto
72.09744094488187 -6.377952755905509 lineto
closepath
fill
newpath
grestore
grestore
showpage

%%EOF