%!PS-Adobe-3.0 EPSF-3.0
%%Creator: EpsGraphics 1.0.0 by Thomas Abeel, http://www.sourceforge.net/epsgraphics/
%%Title: GeoGebra, http://www.geogebra.org/
%%CreationDate: Wed Jul 01 16:59:14 CDT 2015
%%BoundingBox: 0 0 142 65
%%DocumentData: Clean7Bit
%%LanguageLevel: 2
%%DocumentProcessColors: Black
%%ColorUsage: Color
%%Origin: 0 0
%%Pages: 1
%%Page: 1 1
%%EndComments

gsave
0.0 65.0 translate
0.0 0.0 0.0 setrgbcolor
0.0 0.0 0.0 setrgbcolor
gsave
newpath
0.0 -0.0 moveto
142.29921259842524 -0.0 lineto
142.29921259842524 -65.19685039370081 lineto
0.0 -65.19685039370081 lineto
0.0 -0.0 lineto
closepath
clip
newpath
1.0 1.0 1.0 setrgbcolor
newpath
0.0 -0.0 moveto
142.29921259842524 -0.0 lineto
142.29921259842524 -65.19685039370081 lineto
0.0 -65.19685039370081 lineto
0.0 -0.0 lineto
closepath
fill
newpath
0.5019608 0.5019608 0.5019608 setrgbcolor
newpath
66.98778624046508 -48.78713436577266 moveto
69.27751436008246 -36.98073307547984 lineto
57.47111306978964 -34.6910092811885 lineto
55.1813892754983 -46.497406246155286 lineto
66.98778624046508 -48.78713436577266 lineto
fill
newpath
0.5019608 0.5019608 0.5019608 setrgbcolor
1.0 setlinewidth
10.0 setmiterlimit
1 setlinejoin
1 setlinecap
[ ] 0 setdash
newpath
66.98778624046508 -48.78713436577266 moveto
69.27751436008246 -36.98073307547984 lineto
57.47111306978964 -34.6910092811885 lineto
55.1813892754983 -46.497406246155286 lineto
66.98778624046508 -48.78713436577266 lineto
stroke
newpath
0.0 0.0 0.0 setrgbcolor
1.0 setlinewidth
10.0 setmiterlimit
1 setlinejoin
1 setlinecap
[ ] 0 setdash
newpath
-2.8346456692913398 -35.24581245526132 moveto
145.1338582677166 -63.94273443092348 lineto
stroke
newpath
0.0 0.0 0.0 setrgbcolor
1.0 setlinewidth
10.0 setmiterlimit
1 setlinejoin
1 setlinecap
[ ] 0 setdash
newpath
73.7007874015748 -14.173228346456746 moveto
66.98778773577939 -48.78713287321443 lineto
stroke
newpath
0.0 0.0 0.0 setrgbcolor
1.0 setlinewidth
10.0 setmiterlimit
1 setlinejoin
1 setlinecap
[ ] 0 setdash
newpath
78.4931102362205 -35.39763779527561 moveto
78.4931102362205 -33.377952755905525 lineto
79.10433070866145 -33.377952755905525 lineto
79.10433070866145 -38.55118110236222 lineto
78.4931102362205 -38.55118110236222 lineto
78.4931102362205 -37.99311023622049 lineto
78.36318897250602 -38.21161417974029 78.20078739867087 -38.37549212761225 78.00590551181105 -38.48474409448821 curveto
77.81102361623934 -38.5939960662481 77.57480314547037 -38.64862204724411 77.29724409448822 -38.64862204724411 curveto
76.84842518347457 -38.64862204724411 76.48228346034301 -38.46850393163995 76.19881889763782 -38.108267716535444 curveto
75.91535432226078 -37.748031485327125 75.77362204724412 -37.27559054246922 75.77362204724412 -36.69094488188978 curveto
75.77362204724412 -36.10629919517464 75.91535433493263 -35.63533464034537 76.19881889763782 -35.27805118110238 curveto
76.48228347301486 -34.92076770588757 76.84842520353834 -34.742125984251985 77.29724409448822 -34.742125984251985 curveto
77.57480315787824 -34.742125984251985 77.81102362495123 -34.79527559213518 78.00590551181105 -34.90157480314962 curveto
78.20078740738276 -35.00787401891601 78.36318897831396 -35.17322834980067 78.4931102362205 -35.39763779527561 curveto
closepath
76.41141732283468 -36.69094488188978 moveto
76.41141732283468 -37.13976379290342 76.50295275863351 -37.49261811406419 76.68602362204727 -37.74950787401576 curveto
76.86909449364494 -38.0063976454512 77.12303150090295 -38.13484251968505 77.44783464566932 -38.13484251968505 curveto
77.77263780495551 -38.13484251968505 78.02805118387437 -38.00639763396733 78.21407480314964 -37.74950787401576 curveto
78.40009843074081 -37.49261810258032 78.4931102362205 -37.13976377283965 78.4931102362205 -36.69094488188978 curveto
78.4931102362205 -36.24212597087613 78.40009842242492 -35.890748027712114 78.21407480314964 -35.63681102362206 curveto
78.02805117555846 -35.38287400818013 77.77263779043568 -35.25590551181104 77.44783464566932 -35.25590551181104 curveto
77.12303148638313 -35.25590551181104 76.86909448546103 -35.382874019532004 76.68602362204727 -35.63681102362206 curveto
76.50295275044961 -35.890748039063986 76.41141732283468 -36.242125990939904 76.41141732283468 -36.69094488188978 curveto
closepath
fill
newpath
0.0 0.0 0.0 setrgbcolor
1.0 setlinewidth
10.0 setmiterlimit
1 setlinejoin
1 setlinecap
[ ] 0 setdash
newpath
75.4015748031496 -14.173228346456746 moveto
75.4015748031496 -15.112547291050852 74.64010634616889 -15.87401574803155 73.7007874015748 -15.87401574803155 curveto
72.7614684569807 -15.87401574803155 72.0 -15.112547291050852 72.0 -14.173228346456746 curveto
72.0 -13.233909401862642 72.7614684569807 -12.472440944881942 73.7007874015748 -12.472440944881942 curveto
74.64010634616889 -12.472440944881942 75.4015748031496 -13.233909401862642 75.4015748031496 -14.173228346456746 curveto
closepath
fill
newpath
0.0 0.0 0.0 setrgbcolor
1.0 setlinewidth
10.0 setmiterlimit
1 setlinejoin
1 setlinecap
[ ] 0 setdash
newpath
75.4015748031496 -14.173228346456746 moveto
75.4015748031496 -15.112547291050852 74.64010634616889 -15.87401574803155 73.7007874015748 -15.87401574803155 curveto
72.7614684569807 -15.87401574803155 72.0 -15.112547291050852 72.0 -14.173228346456746 curveto
72.0 -13.233909401862642 72.7614684569807 -12.472440944881942 73.7007874015748 -12.472440944881942 curveto
74.64010634616889 -12.472440944881942 75.4015748031496 -13.233909401862642 75.4015748031496 -14.173228346456746 curveto
closepath
stroke
newpath
0.0 0.0 0.0 setrgbcolor
1.0 setlinewidth
10.0 setmiterlimit
1 setlinejoin
1 setlinecap
[ ] 0 setdash
newpath
77.30610236220475 -6.360236220472443 moveto
77.30610236220475 -8.22933070866142 lineto
78.14763779527561 -8.22933070866142 lineto
78.46062993058776 -8.22933070866142 78.7027559080638 -8.148129918839874 78.87401574803152 -7.985728346456696 curveto
79.04527559565516 -7.823326766813602 79.13090551181105 -7.591535428582921 79.13090551181105 -7.290354330708664 curveto
79.13090551181105 -6.995078731357585 79.04527558799924 -6.766240155060346 78.87401574803152 -6.6038385826771675 curveto
78.7027559004079 -6.441437003034074 78.46062991659592 -6.360236220472443 78.14763779527561 -6.360236220472443 curveto
77.30610236220475 -6.360236220472443 lineto
closepath
76.63287401574806 -5.811023622047246 moveto
78.14763779527561 -5.811023622047246 lineto
78.70866143404267 -5.811023622047246 79.130905516035 -5.936515751771455 79.41437007874019 -6.187500000000003 curveto
79.69783465411723 -6.43848425944842 79.8395669291339 -6.8061023694206435 79.8395669291339 -7.290354330708664 curveto
79.8395669291339 -7.780511825631456 79.69783464144538 -8.151082680905315 79.41437007874019 -8.402066929133861 curveto
79.13090550336315 -8.65305118858228 78.70866140896295 -8.778543307086618 78.14763779527561 -8.778543307086618 curveto
77.30610236220475 -8.778543307086618 lineto
77.30610236220475 -10.77165354330709 lineto
76.63287401574806 -10.77165354330709 lineto
76.63287401574806 -5.811023622047246 lineto
closepath
fill
newpath
grestore
grestore
showpage

%%EOF