%!PS-Adobe-3.0 EPSF-3.0
%%Creator: EpsGraphics 1.0.0 by Thomas Abeel, http://www.sourceforge.net/epsgraphics/
%%Title: GeoGebra, http://www.geogebra.org/
%%CreationDate: Mon Jun 22 11:46:26 CDT 2015
%%BoundingBox: 0 0 123 99
%%DocumentData: Clean7Bit
%%LanguageLevel: 2
%%DocumentProcessColors: Black
%%ColorUsage: Color
%%Origin: 0 0
%%Pages: 1
%%Page: 1 1
%%EndComments

gsave
0.0 99.0 translate
0.0 0.0 0.0 setrgbcolor
0.0 0.0 0.0 setrgbcolor
gsave
newpath
0.0 -0.0 moveto
123.02362204724415 -0.0 lineto
123.02362204724415 -99.21259842519689 lineto
0.0 -99.21259842519689 lineto
0.0 -0.0 lineto
closepath
clip
newpath
1.0 1.0 1.0 setrgbcolor
newpath
0.0 -0.0 moveto
123.02362204724415 -0.0 lineto
123.02362204724415 -99.21259842519689 lineto
0.0 -99.21259842519689 lineto
0.0 -0.0 lineto
closepath
fill
newpath
0.3764706 0.3764706 0.3764706 setrgbcolor
newpath
30.02211354705396 -78.02659314177554 moveto
30.11833345863156 -76.2585522665371 29.93787235701256 -74.48632969447583 29.48725197234108 -72.77397223272419 curveto
13.039370078740163 -77.10236220472444 lineto
closepath
fill
newpath
0.3764706 0.3764706 0.3764706 setrgbcolor
1.0 setlinewidth
10.0 setmiterlimit
1 setlinejoin
1 setlinecap
[ ] 0 setdash
newpath
30.02211354705396 -78.02659314177554 moveto
30.11833345863156 -76.2585522665371 29.93787235701256 -74.48632969447583 29.48725197234108 -72.77397223272419 curveto
13.039370078740163 -77.10236220472444 lineto
closepath
stroke
newpath
0.3764706 0.3764706 0.3764706 setrgbcolor
1.0 setlinewidth
10.0 setmiterlimit
1 setlinejoin
1 setlinecap
[ ] 0 setdash
newpath
29.48725197234108 -72.77397223272419 moveto
28.148741599736155 -67.68763281682548 24.532331638730625 -63.506698492075664 19.69184081216441 -61.449489890785024 curveto
13.039370078740163 -77.10236220472444 lineto
closepath
fill
newpath
0.3764706 0.3764706 0.3764706 setrgbcolor
1.0 setlinewidth
10.0 setmiterlimit
1 setlinejoin
1 setlinecap
[ ] 0 setdash
newpath
29.48725197234108 -72.77397223272419 moveto
28.148741599736155 -67.68763281682548 24.532331638730625 -63.506698492075664 19.69184081216441 -61.449489890785024 curveto
13.039370078740163 -77.10236220472444 lineto
closepath
stroke
newpath
0.0 0.0 0.0 setrgbcolor
1.0 setlinewidth
10.0 setmiterlimit
1 setlinejoin
1 setlinecap
[ ] 0 setdash
newpath
13.039370078740163 -77.10236220472444 moveto
45.80787401574805 -0.0 lineto
stroke
newpath
0.0 0.0 0.0 setrgbcolor
1.0 setlinewidth
10.0 setmiterlimit
1 setlinejoin
1 setlinecap
[ ] 0 setdash
newpath
13.039370078740163 -77.10236220472444 moveto
123.02362204724415 -48.15913800248655 lineto
stroke
newpath
0.0 0.0 0.0 setrgbcolor
1.0 setlinewidth
10.0 setmiterlimit
1 setlinejoin
1 setlinecap
[ ] 0 setdash
newpath
13.039370078740163 -77.10236220472444 moveto
123.02362204724415 -83.0878997268199 lineto
stroke
newpath
0.0 0.0 0.0 setrgbcolor
1.0 setlinewidth
10.0 setmiterlimit
1 setlinejoin
1 setlinecap
[ ] 0 setdash
newpath
34.01574803149607 -31.748031496063028 moveto
34.01574803149607 -32.687350440657134 33.25427957451537 -33.448818897637835 32.314960629921266 -33.448818897637835 curveto
31.375641685327157 -33.448818897637835 30.61417322834646 -32.687350440657134 30.61417322834646 -31.748031496063028 curveto
30.61417322834646 -30.808712551468922 31.375641685327157 -30.047244094488224 32.314960629921266 -30.047244094488224 curveto
33.25427957451537 -30.047244094488224 34.01574803149607 -30.808712551468922 34.01574803149607 -31.748031496063028 curveto
closepath
fill
newpath
0.0 0.0 0.0 setrgbcolor
1.0 setlinewidth
10.0 setmiterlimit
1 setlinejoin
1 setlinecap
[ ] 0 setdash
newpath
34.01574803149607 -31.748031496063028 moveto
34.01574803149607 -32.687350440657134 33.25427957451537 -33.448818897637835 32.314960629921266 -33.448818897637835 curveto
31.375641685327157 -33.448818897637835 30.61417322834646 -32.687350440657134 30.61417322834646 -31.748031496063028 curveto
30.61417322834646 -30.808712551468922 31.375641685327157 -30.047244094488224 32.314960629921266 -30.047244094488224 curveto
33.25427957451537 -30.047244094488224 34.01574803149607 -30.808712551468922 34.01574803149607 -31.748031496063028 curveto
closepath
stroke
newpath
0.0 0.0 0.0 setrgbcolor
1.0 setlinewidth
10.0 setmiterlimit
1 setlinejoin
1 setlinecap
[ ] 0 setdash
newpath
42.01476377952758 -31.420275590551192 moveto
41.10236220472442 -33.882874015748044 lineto
42.927165354330725 -33.882874015748044 lineto
42.01476377952758 -31.420275590551192 lineto
closepath
41.63385826771655 -30.755905511811036 moveto
42.3956692913386 -30.755905511811036 lineto
44.282480314960644 -35.71653543307088 lineto
43.58267716535435 -35.71653543307088 lineto
43.13090551181104 -34.44094488188978 lineto
40.89862204724411 -34.44094488188978 lineto
40.4468503937008 -35.71653543307088 lineto
39.73818897637797 -35.71653543307088 lineto
41.63385826771655 -30.755905511811036 lineto
closepath
fill
newpath
0.0 0.0 0.0 setrgbcolor
1.0 setlinewidth
10.0 setmiterlimit
1 setlinejoin
1 setlinecap
[ ] 0 setdash
newpath
68.5984251968504 -62.929133858267754 moveto
68.5984251968504 -63.86845280286187 67.8369567398697 -64.62992125984256 66.8976377952756 -64.62992125984256 curveto
65.9583188506815 -64.62992125984256 65.1968503937008 -63.86845280286187 65.1968503937008 -62.929133858267754 curveto
65.1968503937008 -61.98981491367365 65.9583188506815 -61.228346456692954 66.8976377952756 -61.228346456692954 curveto
67.8369567398697 -61.228346456692954 68.5984251968504 -61.98981491367365 68.5984251968504 -62.929133858267754 curveto
closepath
fill
newpath
0.0 0.0 0.0 setrgbcolor
1.0 setlinewidth
10.0 setmiterlimit
1 setlinejoin
1 setlinecap
[ ] 0 setdash
newpath
68.5984251968504 -62.929133858267754 moveto
68.5984251968504 -63.86845280286187 67.8369567398697 -64.62992125984256 66.8976377952756 -64.62992125984256 curveto
65.9583188506815 -64.62992125984256 65.1968503937008 -63.86845280286187 65.1968503937008 -62.929133858267754 curveto
65.1968503937008 -61.98981491367365 65.9583188506815 -61.228346456692954 66.8976377952756 -61.228346456692954 curveto
67.8369567398697 -61.228346456692954 68.5984251968504 -61.98981491367365 68.5984251968504 -62.929133858267754 curveto
closepath
stroke
newpath
0.0 0.0 0.0 setrgbcolor
1.0 setlinewidth
10.0 setmiterlimit
1 setlinejoin
1 setlinecap
[ ] 0 setdash
newpath
59.16437007874018 -55.46161417322837 moveto
59.16437007874018 -57.27755905511813 lineto
60.2450787401575 -57.27755905511813 lineto
60.60531497136582 -57.27755905511813 60.87253937267473 -57.202263777283605 61.04675196850396 -57.05167322834648 curveto
61.2209645721211 -56.901082672677425 61.308070866141755 -56.67224408991226 61.308070866141755 -56.365157480314984 curveto
61.308070866141755 -56.05216534500284 61.22096456433319 -55.82332676949759 61.04675196850396 -55.67864173228349 curveto
60.87253936488682 -55.53395668860146 60.605314955262 -55.46161417322837 60.2450787401575 -55.46161417322837 curveto
59.16437007874018 -55.46161417322837 lineto
closepath
59.16437007874018 -53.41535433070868 moveto
59.16437007874018 -54.91240157480317 lineto
60.15649606299215 -54.91240157480317 lineto
60.487204734265354 -54.91240157480317 60.732283466942924 -54.85039369893944 60.89173228346459 -54.726377952755925 curveto
61.05118110711417 -54.60236220102847 61.130905511811044 -54.416338578981225 61.130905511811044 -54.16830708661419 curveto
61.130905511811044 -53.914370071172264 61.05118109998625 -53.72539369893944 60.89173228346459 -53.601377952755925 curveto
60.73228345981501 -53.47736220102847 60.487204719481525 -53.41535433070868 60.15649606299215 -53.41535433070868 curveto
59.16437007874018 -53.41535433070868 lineto
closepath
58.49114173228349 -52.86614173228349 moveto
60.20964566929136 -52.86614173228349 lineto
60.72342521216224 -52.86614173228349 61.117618114328195 -52.97244094804988 61.39222440944884 -53.18503937007876 curveto
61.66683071684535 -53.39763780161154 61.80413385826774 -53.69881890344575 61.80413385826774 -54.08858267716538 curveto
61.80413385826774 -54.395669300490496 61.733267714423484 -54.639271656227294 61.59153543307089 -54.81938976377955 curveto
61.44980314538237 -54.99950787938371 61.24311023217254 -55.110236221088456 60.97145669291341 -55.15157480314963 curveto
61.302165364186614 -55.222440946993885 61.559055120838224 -55.37007874350146 61.74212598425199 -55.5944881889764 curveto
61.92519685584966 -55.81889764448322 62.01673228346459 -56.09940945383486 62.01673228346459 -56.436023622047266 curveto
62.01673228346459 -56.87893702107388 61.86614172779554 -57.221456696521365 61.56496062992128 -57.46358267716538 curveto
61.263779518583185 -57.705708668633264 60.83267715699445 -57.82677165354333 60.27165354330711 -57.82677165354333 curveto
58.49114173228349 -57.82677165354333 lineto
58.49114173228349 -52.86614173228349 lineto
closepath
fill
newpath
0.0 0.0 0.0 setrgbcolor
1.0 setlinewidth
10.0 setmiterlimit
1 setlinejoin
1 setlinecap
[ ] 0 setdash
newpath
98.07874015748033 -81.63779527559058 moveto
98.07874015748033 -82.57711422018468 97.31727170049962 -83.33858267716539 96.37795275590551 -83.33858267716539 curveto
95.43863381131142 -83.33858267716539 94.67716535433071 -82.57711422018468 94.67716535433071 -81.63779527559058 curveto
94.67716535433071 -80.69847633099648 95.43863381131142 -79.93700787401578 96.37795275590551 -79.93700787401578 curveto
97.31727170049962 -79.93700787401578 98.07874015748033 -80.69847633099648 98.07874015748033 -81.63779527559058 curveto
closepath
fill
newpath
0.0 0.0 0.0 setrgbcolor
1.0 setlinewidth
10.0 setmiterlimit
1 setlinejoin
1 setlinecap
[ ] 0 setdash
newpath
98.07874015748033 -81.63779527559058 moveto
98.07874015748033 -82.57711422018468 97.31727170049962 -83.33858267716539 96.37795275590551 -83.33858267716539 curveto
95.43863381131142 -83.33858267716539 94.67716535433071 -82.57711422018468 94.67716535433071 -81.63779527559058 curveto
94.67716535433071 -80.69847633099648 95.43863381131142 -79.93700787401578 96.37795275590551 -79.93700787401578 curveto
97.31727170049962 -79.93700787401578 98.07874015748033 -80.69847633099648 98.07874015748033 -81.63779527559058 curveto
closepath
stroke
newpath
0.0 0.0 0.0 setrgbcolor
1.0 setlinewidth
10.0 setmiterlimit
1 setlinejoin
1 setlinecap
[ ] 0 setdash
newpath
93.39271653543311 -70.25492125984255 moveto
93.39271653543311 -70.96358267716538 lineto
93.16240156793927 -70.7509842456326 92.92027558676726 -70.59301180948367 92.6663385826772 -70.48966535433074 curveto
92.41240156723526 -70.38631889455786 92.14074802718415 -70.33464566929136 91.85137795275594 -70.33464566929136 curveto
91.28444880200186 -70.33464566929136 90.85039369629948 -70.5088582729085 90.54921259842523 -70.85728346456696 curveto
90.24803148708713 -71.20570867180123 90.09744094488192 -71.70767717512224 90.09744094488192 -72.36318897637798 curveto
90.09744094488192 -73.01279529495035 90.24803150055098 -73.51181102881401 90.54921259842523 -73.86023622047247 curveto
90.85039370976332 -74.20866142770674 91.28444882734557 -74.38287401574806 91.85137795275594 -74.38287401574806 curveto
92.14074804012 -74.38287401574806 92.41240157858714 -74.32972440786487 92.6663385826772 -74.22342519685043 curveto
92.92027559811913 -74.11712598108403 93.16240157823515 -73.9606299181799 93.39271653543311 -73.75393700787404 curveto
93.39271653543311 -74.45374015748034 lineto
93.15649605595225 -74.61318898112992 92.90698818506046 -74.7327755917392 92.64419291338587 -74.81250000000003 curveto
92.3813976299634 -74.89222441182483 92.105314956318 -74.93208661417326 91.81594488188979 -74.93208661417326 curveto
91.06003934755103 -74.93208661417326 90.46653542664697 -74.70177164667942 90.03543307086618 -74.2411417322835 curveto
89.6043306958136 -73.78051179729582 89.3887795275591 -73.15452754726329 89.3887795275591 -72.36318897637798 curveto
89.3887795275591 -71.56594485813007 89.60433071508538 -70.93700786715186 90.03543307086618 -70.47637795275593 curveto
90.46653544591875 -70.01574801776825 91.06003938134263 -69.78543307086616 91.81594488188979 -69.78543307086616 curveto
92.11122048124088 -69.78543307086616 92.39025590942781 -69.82529527677856 92.6530511811024 -69.90501968503939 curveto
92.91584646452486 -69.98474409686419 93.16240157823515 -70.1013779550439 93.39271653543311 -70.25492125984255 curveto
closepath
fill
newpath
0.0 0.0 0.0 setrgbcolor
1.0 setlinewidth
10.0 setmiterlimit
1 setlinejoin
1 setlinecap
[ ] 0 setdash
newpath
14.740157480314966 -77.10236220472444 moveto
14.740157480314966 -78.04168114931853 13.978689023334267 -78.80314960629924 13.039370078740163 -78.80314960629924 curveto
12.100051134146057 -78.80314960629924 11.338582677165359 -78.04168114931853 11.338582677165359 -77.10236220472444 curveto
11.338582677165359 -76.16304326013034 12.100051134146057 -75.40157480314963 13.039370078740163 -75.40157480314963 curveto
13.978689023334267 -75.40157480314963 14.740157480314966 -76.16304326013034 14.740157480314966 -77.10236220472444 curveto
closepath
fill
newpath
0.0 0.0 0.0 setrgbcolor
1.0 setlinewidth
10.0 setmiterlimit
1 setlinejoin
1 setlinecap
[ ] 0 setdash
newpath
14.740157480314966 -77.10236220472444 moveto
14.740157480314966 -78.04168114931853 13.978689023334267 -78.80314960629924 13.039370078740163 -78.80314960629924 curveto
12.100051134146057 -78.80314960629924 11.338582677165359 -78.04168114931853 11.338582677165359 -77.10236220472444 curveto
11.338582677165359 -76.16304326013034 12.100051134146057 -75.40157480314963 13.039370078740163 -75.40157480314963 curveto
13.978689023334267 -75.40157480314963 14.740157480314966 -76.16304326013034 14.740157480314966 -77.10236220472444 curveto
closepath
stroke
newpath
0.0 0.0 0.0 setrgbcolor
1.0 setlinewidth
10.0 setmiterlimit
1 setlinejoin
1 setlinecap
[ ] 0 setdash
newpath
13.455708661417328 -82.23129921259846 moveto
12.965551166494535 -82.23129921259846 12.577263775259613 -82.41289370619937 12.290846456692918 -82.77608267716539 curveto
12.004429125322371 -83.13927166436721 11.86122047244095 -83.63681103303797 11.86122047244095 -84.26870078740161 curveto
11.86122047244095 -84.88877954603888 12.004429138126223 -85.38041339123873 12.290846456692918 -85.74360236220475 curveto
12.577263788063465 -86.10679134940658 12.965551188406282 -86.28838582677169 13.455708661417328 -86.28838582677169 curveto
13.939960644353098 -86.28838582677169 14.325295279858507 -86.10679133317078 14.611712598425202 -85.74360236220475 curveto
14.898129929795749 -85.38041337500293 15.04133858267717 -84.8887795183192 15.04133858267717 -84.26870078740161 curveto
15.04133858267717 -83.63681100479029 14.898129916991897 -83.1392716481314 14.611712598425202 -82.77608267716539 curveto
14.325295267054655 -82.41289368996357 13.939960622705348 -82.23129921259846 13.455708661417328 -82.23129921259846 curveto
closepath
13.455708661417328 -81.69094488188979 moveto
14.146653563898854 -81.69094488188979 14.700295281794485 -81.92421260537715 15.116633858267722 -82.39074803149609 curveto
15.532972453352745 -82.8572834784708 15.74114173228347 -83.48326772823934 15.74114173228347 -84.26870078740161 curveto
15.74114173228347 -85.04822836968846 15.532972434740959 -85.67125984947164 15.116633858267722 -86.13779527559058 curveto
14.7002952631827 -86.6043307225653 14.14665353301121 -86.83759842519689 13.455708661417328 -86.83759842519689 curveto
12.75885824694878 -86.83759842519689 12.20078739532688 -86.60433070170953 11.781496062992131 -86.13779527559058 curveto
11.362204711913598 -85.67125982861587 11.152559055118115 -85.04822833484086 11.152559055118115 -84.26870078740161 curveto
11.152559055118115 -83.48326769312774 11.362204730657382 -82.85728345761504 11.781496062992131 -82.39074803149609 curveto
12.200787414070664 -81.92421258452138 12.75885827810042 -81.69094488188979 13.455708661417328 -81.69094488188979 curveto
closepath
fill
newpath
grestore
grestore
showpage

%%EOF