%!PS-Adobe-3.0 EPSF-3.0
%%Creator: EpsGraphics 1.0.0 by Thomas Abeel, http://www.sourceforge.net/epsgraphics/
%%Title: GeoGebra, http://www.geogebra.org/
%%CreationDate: Fri Aug 07 17:40:12 CDT 2015
%%BoundingBox: 0 0 102 127
%%DocumentData: Clean7Bit
%%LanguageLevel: 2
%%DocumentProcessColors: Black
%%ColorUsage: Color
%%Origin: 0 0
%%Pages: 1
%%Page: 1 1
%%EndComments

gsave
0.0 127.0 translate
0.0 0.0 0.0 setrgbcolor
0.0 0.0 0.0 setrgbcolor
gsave
newpath
0.0 -0.0 moveto
102.04724409448822 -0.0 lineto
102.04724409448822 -127.55905511811028 lineto
0.0 -127.55905511811028 lineto
0.0 -0.0 lineto
closepath
clip
newpath
1.0 1.0 1.0 setrgbcolor
newpath
0.0 -0.0 moveto
102.04724409448822 -0.0 lineto
102.04724409448822 -127.55905511811028 lineto
0.0 -127.55905511811028 lineto
0.0 -0.0 lineto
closepath
fill
newpath
0.0 0.0 0.0 setrgbcolor
1.0 setlinewidth
10.0 setmiterlimit
1 setlinejoin
1 setlinecap
[ ] 0 setdash
newpath
36.28346456692913 -6.803149606299199 moveto
7.93700787401575 -35.149606299212614 lineto
stroke
newpath
0.0 0.0 0.0 setrgbcolor
1.0 setlinewidth
10.0 setmiterlimit
1 setlinejoin
1 setlinecap
[ ] 0 setdash
newpath
7.93700787401575 -35.149606299212614 moveto
64.62992125984252 -35.149606299212614 lineto
stroke
newpath
0.0 0.0 0.0 setrgbcolor
1.0 setlinewidth
10.0 setmiterlimit
1 setlinejoin
1 setlinecap
[ ] 0 setdash
newpath
92.97637795275591 -6.803149606299199 moveto
64.62992125984252 -35.149606299212614 lineto
stroke
newpath
0.0 0.0 0.0 setrgbcolor
1.0 setlinewidth
10.0 setmiterlimit
1 setlinejoin
1 setlinecap
[ ] 0 setdash
newpath
92.97637795275591 -6.803149606299199 moveto
36.28346456692913 -6.803149606299199 lineto
stroke
newpath
0.0 0.0 0.0 setrgbcolor
1.0 setlinewidth
10.0 setmiterlimit
1 setlinejoin
0 setlinecap
[ 9.0 8.0 ] 0 setdash
newpath
92.97637795275591 -91.84251968503943 moveto
36.28346456692913 -91.84251968503943 lineto
stroke
newpath
0.0 0.0 0.0 setrgbcolor
1.0 setlinewidth
10.0 setmiterlimit
1 setlinejoin
0 setlinecap
[ 9.0 8.0 ] 0 setdash
newpath
36.28346456692913 -91.84251968503943 moveto
7.93700787401575 -120.18897637795286 lineto
stroke
newpath
0.0 0.0 0.0 setrgbcolor
1.0 setlinewidth
10.0 setmiterlimit
1 setlinejoin
1 setlinecap
[ ] 0 setdash
newpath
7.93700787401575 -120.18897637795286 moveto
7.93700787401575 -35.149606299212614 lineto
stroke
newpath
0.0 0.0 0.0 setrgbcolor
1.0 setlinewidth
10.0 setmiterlimit
1 setlinejoin
1 setlinecap
[ ] 0 setdash
newpath
64.62992125984252 -35.149606299212614 moveto
64.62992125984252 -120.18897637795286 lineto
stroke
newpath
0.0 0.0 0.0 setrgbcolor
1.0 setlinewidth
10.0 setmiterlimit
1 setlinejoin
1 setlinecap
[ ] 0 setdash
newpath
92.97637795275591 -91.84251968503943 moveto
92.97637795275591 -6.803149606299199 lineto
stroke
newpath
0.0 0.0 0.0 setrgbcolor
1.0 setlinewidth
10.0 setmiterlimit
1 setlinejoin
1 setlinecap
[ ] 0 setdash
newpath
92.97637795275591 -91.84251968503943 moveto
64.62992125984252 -120.18897637795286 lineto
stroke
newpath
0.0 0.0 0.0 setrgbcolor
1.0 setlinewidth
10.0 setmiterlimit
1 setlinejoin
1 setlinecap
[ ] 0 setdash
newpath
64.62992125984252 -120.18897637795286 moveto
7.93700787401575 -120.18897637795286 lineto
stroke
newpath
0.0 0.0 0.0 setrgbcolor
1.0 setlinewidth
10.0 setmiterlimit
1 setlinejoin
0 setlinecap
[ 9.0 8.0 ] 0 setdash
newpath
36.28346456692913 -91.84251968503943 moveto
36.28346456692913 -6.803149606299199 lineto
stroke
newpath
grestore
grestore
showpage

%%EOF