%!PS-Adobe-3.0 EPSF-3.0
%%Creator: EpsGraphics 1.0.0 by Thomas Abeel, http://www.sourceforge.net/epsgraphics/
%%Title: GeoGebra, http://www.geogebra.org/
%%CreationDate: Fri Aug 07 17:53:04 CDT 2015
%%BoundingBox: 0 0 114 61
%%DocumentData: Clean7Bit
%%LanguageLevel: 2
%%DocumentProcessColors: Black
%%ColorUsage: Color
%%Origin: 0 0
%%Pages: 1
%%Page: 1 1
%%EndComments

gsave
0.0 61.0 translate
0.0 0.0 0.0 setrgbcolor
0.0 0.0 0.0 setrgbcolor
gsave
newpath
0.0 -0.0 moveto
114.5196850393701 -0.0 lineto
114.5196850393701 -61.79527559055119 lineto
0.0 -61.79527559055119 lineto
0.0 -0.0 lineto
closepath
clip
newpath
1.0 1.0 1.0 setrgbcolor
newpath
0.0 -0.0 moveto
114.5196850393701 -0.0 lineto
114.5196850393701 -61.79527559055119 lineto
0.0 -61.79527559055119 lineto
0.0 -0.0 lineto
closepath
fill
newpath
0.0 0.0 0.0 setrgbcolor
1.0 setlinewidth
10.0 setmiterlimit
1 setlinejoin
1 setlinecap
[ ] 0 setdash
newpath
7.3700787401574654 -49.32283464566929 moveto
107.14960629921258 -49.32283464566929 lineto
stroke
newpath
0.0 0.0 0.0 setrgbcolor
1.0 setlinewidth
10.0 setmiterlimit
1 setlinejoin
1 setlinecap
[ ] 0 setdash
newpath
107.14960629921258 -49.32283464566929 moveto
82.77165354330704 -14.173228346456662 lineto
stroke
newpath
0.0 0.0 0.0 setrgbcolor
1.0 setlinewidth
10.0 setmiterlimit
1 setlinejoin
1 setlinecap
[ ] 0 setdash
newpath
82.77165354330704 -14.173228346456662 moveto
23.811023622047223 -14.173228346456662 lineto
stroke
newpath
0.0 0.0 0.0 setrgbcolor
1.0 setlinewidth
10.0 setmiterlimit
1 setlinejoin
1 setlinecap
[ ] 0 setdash
newpath
53.92027559055119 -6.634842519685041 moveto
53.4301180956284 -6.634842519685041 53.089074800289644 -6.6909448835617455 52.89714566929135 -6.803149606299214 curveto
52.70521652971315 -6.915354334052624 52.60925196850395 -7.107283468614884 52.60925196850395 -7.3789370078740175 curveto
52.60925196850395 -7.597440951393816 52.68159449034496 -7.77017716724631 52.826279527559066 -7.89714566929134 curveto
52.9709645712411 -8.024114177012304 53.16437008234813 -8.087598425196852 53.40649606299213 -8.087598425196852 curveto
53.74901575823939 -8.087598425196852 54.02214567232731 -7.968011807459664 54.225885826771666 -7.728838582677167 curveto
54.429625990323906 -7.489665347202792 54.53149606299213 -7.169291332598747 54.53149606299213 -6.767716535433072 curveto
54.53149606299213 -6.634842519685041 lineto
53.92027559055119 -6.634842519685041 lineto
closepath
55.14271653543308 -6.377952755905513 moveto
55.14271653543308 -8.503937007874017 lineto
54.53149606299213 -8.503937007874017 lineto
54.53149606299213 -7.93700787401575 lineto
54.38976377530362 -8.16141732952257 54.21555117802241 -8.328248033124046 54.00885826771655 -8.437500000000002 curveto
53.80216534817079 -8.546751971759901 53.54822834196875 -8.601377952755907 53.247047244094496 -8.601377952755907 curveto
52.8631889649381 -8.601377952755907 52.55905511476629 -8.493602358992764 52.33464566929135 -8.278051181102363 curveto
52.110236213784525 -8.062499993576075 51.998031496063 -7.777559049838173 51.998031496063 -7.423228346456694 curveto
51.998031496063 -7.003936995378162 52.13828740575477 -6.68799212281629 52.41879921259844 -6.475393700787403 curveto
52.699311031981956 -6.262795269254625 53.11712599252388 -6.156496062992127 53.6722440944882 -6.156496062992127 curveto
54.53149606299213 -6.156496062992127 lineto
54.53149606299213 -6.094488188976379 lineto
54.53149606299213 -5.8110236135993425 54.43848424919654 -5.592519682751397 54.252460629921266 -5.4389763779527565 curveto
54.06643700233009 -5.285433066290195 53.8080708612138 -5.208661417322835 53.47736220472442 -5.208661417322835 curveto
53.26476377319164 -5.208661417322835 53.05659448515302 -5.235236221264432 52.852854330708674 -5.288385826771655 curveto
52.649114167156426 -5.3415354346548485 52.45570865868937 -5.418307088110157 52.2726377952756 -5.518700787401576 curveto
52.2726377952756 -4.951771653543308 lineto
52.49704725078242 -4.8631889737379845 52.71407480627358 -4.798228345840701 52.923720472440955 -4.756889763779529 curveto
53.13336614798022 -4.715551179870378 53.33858268015733 -4.6948818897637805 53.53937007874017 -4.6948818897637805 curveto
54.07677166955913 -4.6948818897637805 54.47834646065287 -4.833661421458788 54.744094488188985 -5.111220472440946 curveto
55.00984252760496 -5.3887795358309605 55.14271653543308 -5.811023630495147 55.14271653543308 -6.377952755905513 curveto
closepath
fill
newpath
0.0 0.0 0.0 setrgbcolor
1.0 setlinewidth
10.0 setmiterlimit
1 setlinejoin
1 setlinecap
[ ] 0 setdash
newpath
23.811023622047223 -14.173228346456662 moveto
7.3700787401574654 -49.32283464566929 lineto
stroke
newpath
0.0 0.0 0.0 setrgbcolor
1.0 setlinewidth
10.0 setmiterlimit
1 setlinejoin
0 setlinecap
[ 9.0 8.0 ] 0 setdash
newpath
23.811023622047223 -14.173228346456662 moveto
107.14960629921258 -49.32283464566929 lineto
stroke
newpath
0.0 0.0 0.0 setrgbcolor
1.0 setlinewidth
10.0 setmiterlimit
1 setlinejoin
0 setlinecap
[ 9.0 8.0 ] 0 setdash
newpath
82.77165354330704 -14.173228346456662 moveto
7.3700787401574654 -49.32283464566929 lineto
stroke
newpath
0.0 0.0 0.0 setrgbcolor
1.0 setlinewidth
10.0 setmiterlimit
1 setlinejoin
0 setlinecap
[ 9.0 8.0 ] 0 setdash
newpath
9.07086614173227 -49.32283464566929 moveto
9.07086614173227 -50.2621535902634 8.309397684751572 -51.023622047244096 7.3700787401574654 -51.023622047244096 curveto
6.43075979556336 -51.023622047244096 5.669291338582662 -50.2621535902634 5.669291338582662 -49.32283464566929 curveto
5.669291338582662 -48.38351570107518 6.43075979556336 -47.62204724409449 7.3700787401574654 -47.62204724409449 curveto
8.309397684751572 -47.62204724409449 9.07086614173227 -48.38351570107518 9.07086614173227 -49.32283464566929 curveto
closepath
fill
newpath
0.0 0.0 0.0 setrgbcolor
1.0 setlinewidth
10.0 setmiterlimit
1 setlinejoin
1 setlinecap
[ ] 0 setdash
newpath
9.07086614173227 -49.32283464566929 moveto
9.07086614173227 -50.2621535902634 8.309397684751572 -51.023622047244096 7.3700787401574654 -51.023622047244096 curveto
6.43075979556336 -51.023622047244096 5.669291338582662 -50.2621535902634 5.669291338582662 -49.32283464566929 curveto
5.669291338582662 -48.38351570107518 6.43075979556336 -47.62204724409449 7.3700787401574654 -47.62204724409449 curveto
8.309397684751572 -47.62204724409449 9.07086614173227 -48.38351570107518 9.07086614173227 -49.32283464566929 curveto
closepath
stroke
newpath
0.0 0.0 0.0 setrgbcolor
1.0 setlinewidth
10.0 setmiterlimit
1 setlinejoin
1 setlinecap
[ ] 0 setdash
newpath
6.298228346456694 -54.0974409448819 moveto
5.385826771653544 -56.56003937007875 lineto
7.2106299212598435 -56.56003937007875 lineto
6.298228346456694 -54.0974409448819 lineto
closepath
5.91732283464567 -53.43307086614174 moveto
6.6791338582677175 -53.43307086614174 lineto
8.565944881889765 -58.393700787401585 lineto
7.866141732283466 -58.393700787401585 lineto
7.414370078740159 -57.11811023622048 lineto
5.18208661417323 -57.11811023622048 lineto
4.730314960629922 -58.393700787401585 lineto
4.021653543307087 -58.393700787401585 lineto
5.91732283464567 -53.43307086614174 lineto
closepath
fill
newpath
0.0 0.0 0.0 setrgbcolor
1.0 setlinewidth
10.0 setmiterlimit
1 setlinejoin
1 setlinecap
[ ] 0 setdash
newpath
108.8503937007874 -49.32283464566929 moveto
108.8503937007874 -50.2621535902634 108.08892524380668 -51.023622047244096 107.14960629921258 -51.023622047244096 curveto
106.21028735461849 -51.023622047244096 105.44881889763778 -50.2621535902634 105.44881889763778 -49.32283464566929 curveto
105.44881889763778 -48.38351570107518 106.21028735461849 -47.62204724409449 107.14960629921258 -47.62204724409449 curveto
108.08892524380668 -47.62204724409449 108.8503937007874 -48.38351570107518 108.8503937007874 -49.32283464566929 curveto
closepath
fill
newpath
0.0 0.0 0.0 setrgbcolor
1.0 setlinewidth
10.0 setmiterlimit
1 setlinejoin
1 setlinecap
[ ] 0 setdash
newpath
108.8503937007874 -49.32283464566929 moveto
108.8503937007874 -50.2621535902634 108.08892524380668 -51.023622047244096 107.14960629921258 -51.023622047244096 curveto
106.21028735461849 -51.023622047244096 105.44881889763778 -50.2621535902634 105.44881889763778 -49.32283464566929 curveto
105.44881889763778 -48.38351570107518 106.21028735461849 -47.62204724409449 107.14960629921258 -47.62204724409449 curveto
108.08892524380668 -47.62204724409449 108.8503937007874 -48.38351570107518 108.8503937007874 -49.32283464566929 curveto
closepath
stroke
newpath
0.0 0.0 0.0 setrgbcolor
1.0 setlinewidth
10.0 setmiterlimit
1 setlinejoin
1 setlinecap
[ ] 0 setdash
newpath
106.2194881889764 -56.02854330708662 moveto
106.2194881889764 -57.84448818897639 lineto
107.30019685039372 -57.84448818897639 lineto
107.66043308160204 -57.84448818897639 107.92765748291094 -57.769192911141864 108.10187007874018 -57.61860236220473 curveto
108.27608268235731 -57.468011806535685 108.36318897637797 -57.23917322377052 108.36318897637797 -56.93208661417324 curveto
108.36318897637797 -56.61909447886109 108.27608267456941 -56.39025590335584 108.10187007874018 -56.24557086614174 curveto
107.92765747512304 -56.10088582245971 107.66043306549822 -56.02854330708662 107.30019685039372 -56.02854330708662 curveto
106.2194881889764 -56.02854330708662 lineto
closepath
106.2194881889764 -53.98228346456694 moveto
106.2194881889764 -55.47933070866143 lineto
107.21161417322837 -55.47933070866143 lineto
107.54232284450158 -55.47933070866143 107.78740157717915 -55.4173228327977 107.94685039370081 -55.293307086614185 curveto
108.10629921735038 -55.16929133488673 108.18602362204726 -54.983267712839485 108.18602362204726 -54.73523622047245 curveto
108.18602362204726 -54.481299205030524 108.10629921022247 -54.2923228327977 107.94685039370081 -54.168307086614185 curveto
107.78740157005123 -54.04429133488673 107.54232282971775 -53.98228346456694 107.21161417322837 -53.98228346456694 curveto
106.2194881889764 -53.98228346456694 lineto
closepath
105.5462598425197 -53.43307086614174 moveto
107.26476377952758 -53.43307086614174 lineto
107.77854332239846 -53.43307086614174 108.17273622456442 -53.53937008190813 108.44734251968507 -53.751968503937015 curveto
108.72194882708156 -53.9645669354698 108.85925196850395 -54.26574803730401 108.85925196850395 -54.65551181102363 curveto
108.85925196850395 -54.962598434348756 108.7883858246597 -55.20620079008555 108.64665354330711 -55.38631889763781 curveto
108.50492125561858 -55.56643701324196 108.29822834240876 -55.67716535494671 108.02657480314963 -55.71850393700788 curveto
108.35728347442284 -55.789370080852144 108.61417323107445 -55.93700787735972 108.7972440944882 -56.16141732283466 curveto
108.98031496608588 -56.385826778341475 109.07185039370081 -56.66633858769312 109.07185039370081 -57.002952755905525 curveto
109.07185039370081 -57.44586615493214 108.92125983803176 -57.788385830379625 108.6200787401575 -58.03051181102363 curveto
108.3188976288194 -58.272637802491516 107.88779526723067 -58.393700787401585 107.32677165354333 -58.393700787401585 curveto
105.5462598425197 -58.393700787401585 lineto
105.5462598425197 -53.43307086614174 lineto
closepath
fill
newpath
0.0 0.0 0.0 setrgbcolor
1.0 setlinewidth
10.0 setmiterlimit
1 setlinejoin
1 setlinecap
[ ] 0 setdash
newpath
84.47244094488184 -14.173228346456662 moveto
84.47244094488184 -15.112547291050769 83.71097248790113 -15.874015748031466 82.77165354330704 -15.874015748031466 curveto
81.83233459871293 -15.874015748031466 81.07086614173224 -15.112547291050769 81.07086614173224 -14.173228346456662 curveto
81.07086614173224 -13.233909401862558 81.83233459871293 -12.47244094488186 82.77165354330704 -12.47244094488186 curveto
83.71097248790113 -12.47244094488186 84.47244094488184 -13.233909401862558 84.47244094488184 -14.173228346456662 curveto
closepath
fill
newpath
0.0 0.0 0.0 setrgbcolor
1.0 setlinewidth
10.0 setmiterlimit
1 setlinejoin
1 setlinecap
[ ] 0 setdash
newpath
84.47244094488184 -14.173228346456662 moveto
84.47244094488184 -15.112547291050769 83.71097248790113 -15.874015748031466 82.77165354330704 -15.874015748031466 curveto
81.83233459871293 -15.874015748031466 81.07086614173224 -15.112547291050769 81.07086614173224 -14.173228346456662 curveto
81.07086614173224 -13.233909401862558 81.83233459871293 -12.47244094488186 82.77165354330704 -12.47244094488186 curveto
83.71097248790113 -12.47244094488186 84.47244094488184 -13.233909401862558 84.47244094488184 -14.173228346456662 curveto
closepath
stroke
newpath
0.0 0.0 0.0 setrgbcolor
1.0 setlinewidth
10.0 setmiterlimit
1 setlinejoin
1 setlinecap
[ ] 0 setdash
newpath
83.75492125984253 -3.3572834645669296 moveto
83.75492125984253 -4.065944881889765 lineto
83.5246062923487 -3.8533464503569874 83.2824803111767 -3.69537401420805 83.02854330708664 -3.592027559055119 curveto
82.7746062916447 -3.488681099282241 82.50295275159357 -3.4370078740157486 82.21358267716536 -3.4370078740157486 curveto
81.6466535264113 -3.4370078740157486 81.21259842070891 -3.6112204776328856 80.91141732283467 -3.9596456692913393 curveto
80.61023621149656 -4.308070876525613 80.45964566929135 -4.810039379846628 80.45964566929135 -5.465551181102363 curveto
80.45964566929135 -6.115157499674738 80.6102362249604 -6.614173233538398 80.91141732283467 -6.962598425196852 curveto
81.21259843417276 -7.311023632431126 81.64665355175501 -7.4852362204724425 82.21358267716536 -7.4852362204724425 curveto
82.50295276452943 -7.4852362204724425 82.77460630299657 -7.432086612589248 83.02854330708664 -7.325787401574805 curveto
83.28248032252857 -7.219488185808416 83.52460630264457 -7.062992122904289 83.75492125984253 -6.856299212598427 curveto
83.75492125984253 -7.556102362204726 lineto
83.51870078036167 -7.715551185854308 83.26919290946988 -7.835137796463578 83.00639763779529 -7.914862204724411 curveto
82.74360235437283 -7.994586616549202 82.46751968072743 -8.034448818897639 82.17814960629923 -8.034448818897639 curveto
81.42224407196046 -8.034448818897639 80.82874015105641 -7.804133851403797 80.3976377952756 -7.343503937007875 curveto
79.96653542022302 -6.882874002020191 79.75098425196852 -6.256889751987664 79.75098425196852 -5.465551181102363 curveto
79.75098425196852 -4.668307062854448 79.9665354394948 -4.039370071876237 80.3976377952756 -3.5787401574803157 curveto
80.82874017032819 -3.1181102224926316 81.42224410575207 -2.887795275590552 82.17814960629923 -2.887795275590552 curveto
82.4734252056503 -2.887795275590552 82.75246063383723 -2.9276574815029477 83.01525590551182 -3.00738188976378 curveto
83.27805118893428 -3.0871063015885714 83.52460630264457 -3.203740159768289 83.75492125984253 -3.3572834645669296 curveto
closepath
fill
newpath
0.0 0.0 0.0 setrgbcolor
1.0 setlinewidth
10.0 setmiterlimit
1 setlinejoin
1 setlinecap
[ ] 0 setdash
newpath
25.511811023622027 -14.173228346456662 moveto
25.511811023622027 -15.112547291050769 24.750342566641333 -15.874015748031466 23.811023622047223 -15.874015748031466 curveto
22.871704677453117 -15.874015748031466 22.11023622047242 -15.112547291050769 22.11023622047242 -14.173228346456662 curveto
22.11023622047242 -13.233909401862558 22.871704677453117 -12.47244094488186 23.811023622047223 -12.47244094488186 curveto
24.750342566641333 -12.47244094488186 25.511811023622027 -13.233909401862558 25.511811023622027 -14.173228346456662 curveto
closepath
fill
newpath
0.0 0.0 0.0 setrgbcolor
1.0 setlinewidth
10.0 setmiterlimit
1 setlinejoin
1 setlinecap
[ ] 0 setdash
newpath
25.511811023622027 -14.173228346456662 moveto
25.511811023622027 -15.112547291050769 24.750342566641333 -15.874015748031466 23.811023622047223 -15.874015748031466 curveto
22.871704677453117 -15.874015748031466 22.11023622047242 -15.112547291050769 22.11023622047242 -14.173228346456662 curveto
22.11023622047242 -13.233909401862558 22.871704677453117 -12.47244094488186 23.811023622047223 -12.47244094488186 curveto
24.750342566641333 -12.47244094488186 25.511811023622027 -13.233909401862558 25.511811023622027 -14.173228346456662 curveto
closepath
stroke
newpath
0.0 0.0 0.0 setrgbcolor
1.0 setlinewidth
10.0 setmiterlimit
1 setlinejoin
1 setlinecap
[ ] 0 setdash
newpath
22.88090551181103 -4.659448818897639 moveto
22.88090551181103 -8.521653543307089 lineto
23.69586614173229 -8.521653543307089 lineto
24.380905532226794 -8.521653543307089 24.881397642503227 -8.366633853647771 25.197342519685044 -8.056594488188978 curveto
25.5132874109907 -7.746555108870345 25.67125984251969 -7.254921249810637 25.67125984251969 -6.581692913385828 curveto
25.67125984251969 -5.92027557083941 25.51328739686686 -5.434547239474543 25.197342519685044 -5.124507874015749 curveto
24.88139762837939 -4.814468494697116 24.38090550160315 -4.659448818897639 23.69586614173229 -4.659448818897639 curveto
22.88090551181103 -4.659448818897639 lineto
closepath
22.207677165354333 -4.110236220472442 moveto
23.589566929133863 -4.110236220472442 lineto
24.55216538301838 -4.110236220472442 25.25787402243596 -4.30954725003442 25.706692913385833 -4.708169291338583 curveto
26.155511824399472 -5.10679135046254 26.379921259842526 -5.73129922527028 26.379921259842526 -6.581692913385828 curveto
26.379921259842526 -7.437992151503958 26.15403542633895 -8.0669291398422 25.702263779527563 -8.468503937007876 curveto
25.250492112520412 -8.870078752125345 24.546259828263853 -9.070866141732285 23.589566929133863 -9.070866141732285 curveto
22.207677165354333 -9.070866141732285 lineto
22.207677165354333 -4.110236220472442 lineto
closepath
fill
newpath
0.0 0.0 0.0 setrgbcolor
1.0 setlinewidth
10.0 setmiterlimit
1 setlinejoin
1 setlinecap
[ ] 0 setdash
newpath
56.46614173228343 -27.22879640044993 moveto
56.46614173228343 -28.168115345044036 55.70467327530274 -28.929583802024734 54.765354330708625 -28.929583802024734 curveto
53.82603538611452 -28.929583802024734 53.064566929133825 -28.168115345044036 53.064566929133825 -27.22879640044993 curveto
53.064566929133825 -26.289477455855824 53.82603538611452 -25.528008998875126 54.765354330708625 -25.528008998875126 curveto
55.70467327530274 -25.528008998875126 56.46614173228343 -26.289477455855824 56.46614173228343 -27.22879640044993 curveto
closepath
fill
newpath
0.0 0.0 0.0 setrgbcolor
1.0 setlinewidth
10.0 setmiterlimit
1 setlinejoin
1 setlinecap
[ ] 0 setdash
newpath
56.46614173228343 -27.22879640044993 moveto
56.46614173228343 -28.168115345044036 55.70467327530274 -28.929583802024734 54.765354330708625 -28.929583802024734 curveto
53.82603538611452 -28.929583802024734 53.064566929133825 -28.168115345044036 53.064566929133825 -27.22879640044993 curveto
53.064566929133825 -26.289477455855824 53.82603538611452 -25.528008998875126 54.765354330708625 -25.528008998875126 curveto
55.70467327530274 -25.528008998875126 56.46614173228343 -26.289477455855824 56.46614173228343 -27.22879640044993 curveto
closepath
stroke
newpath
0.0 0.0 0.0 setrgbcolor
1.0 setlinewidth
10.0 setmiterlimit
1 setlinejoin
1 setlinecap
[ ] 0 setdash
newpath
53.95570866141733 -33.59055118110237 moveto
57.091535433070874 -33.59055118110237 lineto
57.091535433070874 -34.15748031496064 lineto
54.62893700787403 -34.15748031496064 lineto
54.62893700787403 -35.62795275590552 lineto
56.994094488188985 -35.62795275590552 lineto
56.994094488188985 -36.18602362204725 lineto
54.62893700787403 -36.18602362204725 lineto
54.62893700787403 -37.98425196850394 lineto
57.15354330708662 -37.98425196850394 lineto
57.15354330708662 -38.551181102362214 lineto
53.95570866141733 -38.551181102362214 lineto
53.95570866141733 -33.59055118110237 lineto
closepath
fill
newpath
grestore
grestore
showpage

%%EOF