%!PS-Adobe-3.0 EPSF-3.0
%%Creator: EpsGraphics 1.0.0 by Thomas Abeel, http://www.sourceforge.net/epsgraphics/
%%Title: GeoGebra, http://www.geogebra.org/
%%CreationDate: Fri Aug 07 17:59:36 CDT 2015
%%BoundingBox: 0 0 158 78
%%DocumentData: Clean7Bit
%%LanguageLevel: 2
%%DocumentProcessColors: Black
%%ColorUsage: Color
%%Origin: 0 0
%%Pages: 1
%%Page: 1 1
%%EndComments

gsave
0.0 78.0 translate
0.0 0.0 0.0 setrgbcolor
0.0 0.0 0.0 setrgbcolor
gsave
newpath
0.0 -0.0 moveto
158.740157480315 -0.0 lineto
158.740157480315 -78.80314960629923 lineto
0.0 -78.80314960629923 lineto
0.0 -0.0 lineto
closepath
clip
newpath
1.0 1.0 1.0 setrgbcolor
newpath
0.0 -0.0 moveto
158.740157480315 -0.0 lineto
158.740157480315 -78.80314960629923 lineto
0.0 -78.80314960629923 lineto
0.0 -0.0 lineto
closepath
fill
newpath
0.0 0.0 0.0 setrgbcolor
1.0 setlinewidth
10.0 setmiterlimit
1 setlinejoin
1 setlinecap
[ ] 0 setdash
newpath
61.79527559055118 -10.77165354330713 moveto
90.14173228346455 -67.46456692913394 lineto
stroke
newpath
0.0 0.0 0.0 setrgbcolor
1.0 setlinewidth
10.0 setmiterlimit
1 setlinejoin
1 setlinecap
[ ] 0 setdash
newpath
5.102362204724411 -67.46456692913394 moveto
104.31496062992125 -10.77165354330713 lineto
stroke
newpath
0.0 0.0 0.0 setrgbcolor
1.0 setlinewidth
10.0 setmiterlimit
1 setlinejoin
1 setlinecap
[ ] 0 setdash
newpath
5.102362204724411 -67.46456692913394 moveto
118.48818897637794 -39.11811023622054 lineto
stroke
newpath
0.0 0.0 0.0 setrgbcolor
1.0 setlinewidth
10.0 setmiterlimit
1 setlinejoin
1 setlinecap
[ ] 0 setdash
newpath
5.102362204724411 -67.46456692913394 moveto
90.14173228346455 -67.46456692913394 lineto
stroke
newpath
0.0 0.0 0.0 setrgbcolor
1.0 setlinewidth
10.0 setmiterlimit
1 setlinejoin
1 setlinecap
[ ] 0 setdash
newpath
90.14173228346455 -67.46456692913394 moveto
146.83464566929132 -10.77165354330713 lineto
stroke
newpath
0.0 0.0 0.0 setrgbcolor
1.0 setlinewidth
10.0 setmiterlimit
1 setlinejoin
1 setlinecap
[ ] 0 setdash
newpath
146.83464566929132 -10.77165354330713 moveto
61.79527559055118 -10.77165354330713 lineto
stroke
newpath
0.0 0.0 0.0 setrgbcolor
1.0 setlinewidth
10.0 setmiterlimit
1 setlinejoin
1 setlinecap
[ ] 0 setdash
newpath
61.79527559055118 -10.77165354330713 moveto
5.102362204724411 -67.46456692913394 lineto
stroke
newpath
0.0 0.0 0.0 setrgbcolor
1.0 setlinewidth
10.0 setmiterlimit
1 setlinejoin
1 setlinecap
[ ] 0 setdash
newpath
6.803149606299215 -67.46456692913394 moveto
6.803149606299215 -68.40388587372804 6.041681149318516 -69.16535433070875 5.102362204724411 -69.16535433070875 curveto
4.163043260130306 -69.16535433070875 3.401574803149608 -68.40388587372804 3.401574803149608 -67.46456692913394 curveto
3.401574803149608 -66.52524798453983 4.163043260130306 -65.76377952755914 5.102362204724411 -65.76377952755914 curveto
6.041681149318516 -65.76377952755914 6.803149606299215 -66.52524798453983 6.803149606299215 -67.46456692913394 curveto
closepath
fill
newpath
0.0 0.0 0.0 setrgbcolor
1.0 setlinewidth
10.0 setmiterlimit
1 setlinejoin
1 setlinecap
[ ] 0 setdash
newpath
6.803149606299215 -67.46456692913394 moveto
6.803149606299215 -68.40388587372804 6.041681149318516 -69.16535433070875 5.102362204724411 -69.16535433070875 curveto
4.163043260130306 -69.16535433070875 3.401574803149608 -68.40388587372804 3.401574803149608 -67.46456692913394 curveto
3.401574803149608 -66.52524798453983 4.163043260130306 -65.76377952755914 5.102362204724411 -65.76377952755914 curveto
6.041681149318516 -65.76377952755914 6.803149606299215 -66.52524798453983 6.803149606299215 -67.46456692913394 curveto
closepath
stroke
newpath
0.0 0.0 0.0 setrgbcolor
1.0 setlinewidth
10.0 setmiterlimit
1 setlinejoin
1 setlinecap
[ ] 0 setdash
newpath
8.565944881889765 -71.10531496062994 moveto
7.653543307086616 -73.56791338582678 lineto
9.478346456692915 -73.56791338582678 lineto
8.565944881889765 -71.10531496062994 lineto
closepath
8.185039370078742 -70.44094488188978 moveto
8.946850393700789 -70.44094488188978 lineto
10.833661417322837 -75.40157480314961 lineto
10.133858267716537 -75.40157480314961 lineto
9.68208661417323 -74.12598425196852 lineto
7.449803149606301 -74.12598425196852 lineto
6.9980314960629935 -75.40157480314961 lineto
6.289370078740158 -75.40157480314961 lineto
8.185039370078742 -70.44094488188978 lineto
closepath
fill
newpath
0.0 0.0 0.0 setrgbcolor
1.0 setlinewidth
10.0 setmiterlimit
1 setlinejoin
1 setlinecap
[ ] 0 setdash
newpath
91.84251968503935 -67.46456692913394 moveto
91.84251968503935 -68.40388587372804 91.08105122805866 -69.16535433070875 90.14173228346455 -69.16535433070875 curveto
89.20241333887046 -69.16535433070875 88.44094488188975 -68.40388587372804 88.44094488188975 -67.46456692913394 curveto
88.44094488188975 -66.52524798453983 89.20241333887046 -65.76377952755914 90.14173228346455 -65.76377952755914 curveto
91.08105122805866 -65.76377952755914 91.84251968503935 -66.52524798453983 91.84251968503935 -67.46456692913394 curveto
closepath
fill
newpath
0.0 0.0 0.0 setrgbcolor
1.0 setlinewidth
10.0 setmiterlimit
1 setlinejoin
1 setlinecap
[ ] 0 setdash
newpath
91.84251968503935 -67.46456692913394 moveto
91.84251968503935 -68.40388587372804 91.08105122805866 -69.16535433070875 90.14173228346455 -69.16535433070875 curveto
89.20241333887046 -69.16535433070875 88.44094488188975 -68.40388587372804 88.44094488188975 -67.46456692913394 curveto
88.44094488188975 -66.52524798453983 89.20241333887046 -65.76377952755914 90.14173228346455 -65.76377952755914 curveto
91.08105122805866 -65.76377952755914 91.84251968503935 -66.52524798453983 91.84251968503935 -67.46456692913394 curveto
closepath
stroke
newpath
0.0 0.0 0.0 setrgbcolor
1.0 setlinewidth
10.0 setmiterlimit
1 setlinejoin
1 setlinecap
[ ] 0 setdash
newpath
91.47933070866144 -73.60334645669293 moveto
91.47933070866144 -75.4192913385827 lineto
92.56003937007875 -75.4192913385827 lineto
92.92027560128707 -75.4192913385827 93.18750000259598 -75.34399606074817 93.36171259842521 -75.19340551181104 curveto
93.53592520204235 -75.04281495614198 93.623031496063 -74.81397637337682 93.623031496063 -74.50688976377954 curveto
93.623031496063 -74.1938976284674 93.53592519425445 -73.96505905296215 93.36171259842521 -73.82037401574804 curveto
93.18749999480808 -73.67568897206601 92.92027558518326 -73.60334645669293 92.56003937007875 -73.60334645669293 curveto
91.47933070866144 -73.60334645669293 lineto
closepath
91.47933070866144 -71.55708661417324 moveto
91.47933070866144 -73.05413385826773 lineto
92.4714566929134 -73.05413385826773 lineto
92.80216536418662 -73.05413385826773 93.04724409686419 -72.992125982404 93.20669291338585 -72.86811023622049 curveto
93.36614173703542 -72.74409448449303 93.4458661417323 -72.55807086244579 93.4458661417323 -72.31003937007875 curveto
93.4458661417323 -72.05610235463682 93.36614172990751 -71.867125982404 93.20669291338585 -71.74311023622049 curveto
93.04724408973627 -71.61909448449303 92.80216534940278 -71.55708661417324 92.4714566929134 -71.55708661417324 curveto
91.47933070866144 -71.55708661417324 lineto
closepath
90.80610236220474 -71.00787401574804 moveto
92.52460629921262 -71.00787401574804 lineto
93.0383858420835 -71.00787401574804 93.43257874424945 -71.11417323151443 93.7071850393701 -71.32677165354332 curveto
93.9817913467666 -71.5393700850761 94.11909448818899 -71.8405511869103 94.11909448818899 -72.23031496062994 curveto
94.11909448818899 -72.53740158395506 94.04822834434474 -72.78100393969186 93.90649606299215 -72.9611220472441 curveto
93.76476377530362 -73.14124016284826 93.5580708620938 -73.25196850455302 93.28641732283467 -73.29330708661419 curveto
93.61712599410788 -73.36417323045845 93.87401575075948 -73.51181102696601 94.05708661417324 -73.73622047244096 curveto
94.24015748577092 -73.96062992794778 94.33169291338585 -74.24114173729942 94.33169291338585 -74.57775590551182 curveto
94.33169291338585 -75.02066930453844 94.1811023577168 -75.36318897998592 93.87992125984253 -75.60531496062994 curveto
93.57874014850444 -75.84744095209781 93.14763778691571 -75.96850393700788 92.58661417322837 -75.96850393700788 curveto
90.80610236220474 -75.96850393700788 lineto
90.80610236220474 -71.00787401574804 lineto
closepath
fill
newpath
0.0 0.0 0.0 setrgbcolor
1.0 setlinewidth
10.0 setmiterlimit
1 setlinejoin
1 setlinecap
[ ] 0 setdash
newpath
148.53543307086613 -10.77165354330713 moveto
148.53543307086613 -11.710972487901234 147.77396461388543 -12.472440944881932 146.83464566929132 -12.472440944881932 curveto
145.89532672469724 -12.472440944881932 145.13385826771653 -11.710972487901234 145.13385826771653 -10.77165354330713 curveto
145.13385826771653 -9.832334598713024 145.89532672469724 -9.070866141732326 146.83464566929132 -9.070866141732326 curveto
147.77396461388543 -9.070866141732326 148.53543307086613 -9.832334598713024 148.53543307086613 -10.77165354330713 curveto
closepath
fill
newpath
0.0 0.0 0.0 setrgbcolor
1.0 setlinewidth
10.0 setmiterlimit
1 setlinejoin
1 setlinecap
[ ] 0 setdash
newpath
148.53543307086613 -10.77165354330713 moveto
148.53543307086613 -11.710972487901234 147.77396461388543 -12.472440944881932 146.83464566929132 -12.472440944881932 curveto
145.89532672469724 -12.472440944881932 145.13385826771653 -11.710972487901234 145.13385826771653 -10.77165354330713 curveto
145.13385826771653 -9.832334598713024 145.89532672469724 -9.070866141732326 146.83464566929132 -9.070866141732326 curveto
147.77396461388543 -9.070866141732326 148.53543307086613 -9.832334598713024 148.53543307086613 -10.77165354330713 curveto
closepath
stroke
newpath
0.0 0.0 0.0 setrgbcolor
1.0 setlinewidth
10.0 setmiterlimit
1 setlinejoin
1 setlinecap
[ ] 0 setdash
newpath
153.48720472440948 -2.790354330708662 moveto
153.48720472440948 -3.4990157480314967 lineto
153.25688975691563 -3.28641731649872 153.01476377574363 -3.1284448803497824 152.76082677165357 -3.025098425196851 curveto
152.50688975621165 -2.921751965423973 152.23523621616053 -2.870078740157481 151.94586614173232 -2.870078740157481 curveto
151.37893699097825 -2.870078740157481 150.94488188527586 -3.044291343774618 150.6437007874016 -3.3927165354330713 curveto
150.3425196760635 -3.7411417426673452 150.19192913385828 -4.24311024598836 150.19192913385828 -4.898622047244095 curveto
150.19192913385828 -5.54822836581647 150.34251968952734 -6.04724409968013 150.6437007874016 -6.395669291338584 curveto
150.9448818987397 -6.744094498572858 151.37893701632194 -6.918307086614175 151.94586614173232 -6.918307086614175 curveto
152.2352362290964 -6.918307086614175 152.5068897675635 -6.86515747873098 152.76082677165357 -6.758858267716537 curveto
153.0147637870955 -6.652559051950148 153.2568897672115 -6.496062989046021 153.48720472440948 -6.289370078740158 curveto
153.48720472440948 -6.989173228346458 lineto
153.25098424492862 -7.148622051996041 153.00147637403683 -7.268208662605311 152.73868110236222 -7.3479330708661434 curveto
152.4758858189398 -7.427657482690934 152.19980314529437 -7.467519685039371 151.91043307086616 -7.467519685039371 curveto
151.1545275365274 -7.467519685039371 150.56102361562336 -7.237204717545529 150.12992125984255 -6.776574803149607 curveto
149.69881888478997 -6.315944868161924 149.48326771653547 -5.689960618129397 149.48326771653547 -4.898622047244095 curveto
149.48326771653547 -4.101377928996181 149.69881890406174 -3.4724409380179697 150.12992125984255 -3.0118110236220477 curveto
150.56102363489512 -2.5511810886343635 151.154527570319 -2.320866141732284 151.91043307086616 -2.320866141732284 curveto
152.20570867021726 -2.320866141732284 152.48474409840418 -2.3607283476446796 152.74753937007875 -2.4404527559055125 curveto
153.01033465350122 -2.5201771677303038 153.2568897672115 -2.6368110259100215 153.48720472440948 -2.790354330708662 curveto
closepath
fill
newpath
0.0 0.0 0.0 setrgbcolor
1.0 setlinewidth
10.0 setmiterlimit
1 setlinejoin
1 setlinecap
[ ] 0 setdash
newpath
63.49606299212598 -10.77165354330713 moveto
63.49606299212598 -11.710972487901234 62.734594535145284 -12.472440944881932 61.79527559055118 -12.472440944881932 curveto
60.85595664595707 -12.472440944881932 60.09448818897637 -11.710972487901234 60.09448818897637 -10.77165354330713 curveto
60.09448818897637 -9.832334598713024 60.85595664595707 -9.070866141732326 61.79527559055118 -9.070866141732326 curveto
62.734594535145284 -9.070866141732326 63.49606299212598 -9.832334598713024 63.49606299212598 -10.77165354330713 curveto
closepath
fill
newpath
0.0 0.0 0.0 setrgbcolor
1.0 setlinewidth
10.0 setmiterlimit
1 setlinejoin
1 setlinecap
[ ] 0 setdash
newpath
63.49606299212598 -10.77165354330713 moveto
63.49606299212598 -11.710972487901234 62.734594535145284 -12.472440944881932 61.79527559055118 -12.472440944881932 curveto
60.85595664595707 -12.472440944881932 60.09448818897637 -11.710972487901234 60.09448818897637 -10.77165354330713 curveto
60.09448818897637 -9.832334598713024 60.85595664595707 -9.070866141732326 61.79527559055118 -9.070866141732326 curveto
62.734594535145284 -9.070866141732326 63.49606299212598 -9.832334598713024 63.49606299212598 -10.77165354330713 curveto
closepath
stroke
newpath
0.0 0.0 0.0 setrgbcolor
1.0 setlinewidth
10.0 setmiterlimit
1 setlinejoin
1 setlinecap
[ ] 0 setdash
newpath
65.40059055118111 -2.958661417322835 moveto
65.40059055118111 -6.820866141732285 lineto
66.21555118110237 -6.820866141732285 lineto
66.90059057159688 -6.820866141732285 67.40108268187332 -6.6658464520729686 67.71702755905513 -6.355807086614174 curveto
68.03297245036079 -6.045767707295541 68.19094488188978 -5.554133848235834 68.19094488188978 -4.880905511811025 curveto
68.19094488188978 -4.219488169264607 68.03297243623695 -3.733759837899739 67.71702755905513 -3.4237204724409454 curveto
67.40108266774948 -3.113681093122312 66.90059054097323 -2.958661417322835 66.21555118110237 -2.958661417322835 curveto
65.40059055118111 -2.958661417322835 lineto
closepath
64.72736220472441 -2.4094488188976384 moveto
66.10925196850395 -2.4094488188976384 lineto
67.07185042238848 -2.4094488188976384 67.77755906180604 -2.608759848459617 68.22637795275591 -3.00738188976378 curveto
68.67519686376956 -3.4060039488877374 68.8996062992126 -4.030511823695477 68.8996062992126 -4.880905511811025 curveto
68.8996062992126 -5.737204749929155 68.67372046570902 -6.366141738267397 68.22194881889764 -6.767716535433072 curveto
67.77017715189051 -7.16929135055054 67.06594486763395 -7.370078740157481 66.10925196850395 -7.370078740157481 curveto
64.72736220472441 -7.370078740157481 lineto
64.72736220472441 -2.4094488188976384 lineto
closepath
fill
newpath
0.0 0.0 0.0 setrgbcolor
1.0 setlinewidth
10.0 setmiterlimit
1 setlinejoin
1 setlinecap
[ ] 0 setdash
newpath
120.18897637795274 -39.11811023622054 moveto
120.18897637795274 -40.057429180814644 119.42750792097205 -40.81889763779534 118.48818897637794 -40.81889763779534 curveto
117.54887003178385 -40.81889763779534 116.78740157480314 -40.057429180814644 116.78740157480314 -39.11811023622054 curveto
116.78740157480314 -38.17879129162643 117.54887003178385 -37.41732283464573 118.48818897637794 -37.41732283464573 curveto
119.42750792097205 -37.41732283464573 120.18897637795274 -38.17879129162643 120.18897637795274 -39.11811023622054 curveto
closepath
fill
newpath
0.0 0.0 0.0 setrgbcolor
1.0 setlinewidth
10.0 setmiterlimit
1 setlinejoin
1 setlinecap
[ ] 0 setdash
newpath
120.18897637795274 -39.11811023622054 moveto
120.18897637795274 -40.057429180814644 119.42750792097205 -40.81889763779534 118.48818897637794 -40.81889763779534 curveto
117.54887003178385 -40.81889763779534 116.78740157480314 -40.057429180814644 116.78740157480314 -39.11811023622054 curveto
116.78740157480314 -38.17879129162643 117.54887003178385 -37.41732283464573 118.48818897637794 -37.41732283464573 curveto
119.42750792097205 -37.41732283464573 120.18897637795274 -38.17879129162643 120.18897637795274 -39.11811023622054 curveto
closepath
stroke
newpath
0.0 0.0 0.0 setrgbcolor
1.0 setlinewidth
10.0 setmiterlimit
1 setlinejoin
1 setlinecap
[ ] 0 setdash
newpath
118.0187007874016 -43.79527559055119 moveto
121.15452755905514 -43.79527559055119 lineto
121.15452755905514 -44.36220472440946 lineto
118.6919291338583 -44.36220472440946 lineto
118.6919291338583 -45.83267716535434 lineto
121.05708661417324 -45.83267716535434 lineto
121.05708661417324 -46.390748031496074 lineto
118.6919291338583 -46.390748031496074 lineto
118.6919291338583 -48.18897637795276 lineto
121.21653543307089 -48.18897637795276 lineto
121.21653543307089 -48.75590551181103 lineto
118.0187007874016 -48.75590551181103 lineto
118.0187007874016 -43.79527559055119 lineto
closepath
fill
newpath
0.0 0.0 0.0 setrgbcolor
1.0 setlinewidth
10.0 setmiterlimit
1 setlinejoin
1 setlinecap
[ ] 0 setdash
newpath
106.01574803149605 -10.77165354330713 moveto
106.01574803149605 -11.710972487901234 105.25427957451535 -12.472440944881932 104.31496062992125 -12.472440944881932 curveto
103.37564168532715 -12.472440944881932 102.61417322834644 -11.710972487901234 102.61417322834644 -10.77165354330713 curveto
102.61417322834644 -9.832334598713024 103.37564168532715 -9.070866141732326 104.31496062992125 -9.070866141732326 curveto
105.25427957451535 -9.070866141732326 106.01574803149605 -9.832334598713024 106.01574803149605 -10.77165354330713 curveto
closepath
fill
newpath
0.0 0.0 0.0 setrgbcolor
1.0 setlinewidth
10.0 setmiterlimit
1 setlinejoin
1 setlinecap
[ ] 0 setdash
newpath
106.01574803149605 -10.77165354330713 moveto
106.01574803149605 -11.710972487901234 105.25427957451535 -12.472440944881932 104.31496062992125 -12.472440944881932 curveto
103.37564168532715 -12.472440944881932 102.61417322834644 -11.710972487901234 102.61417322834644 -10.77165354330713 curveto
102.61417322834644 -9.832334598713024 103.37564168532715 -9.070866141732326 104.31496062992125 -9.070866141732326 curveto
105.25427957451535 -9.070866141732326 106.01574803149605 -9.832334598713024 106.01574803149605 -10.77165354330713 curveto
closepath
stroke
newpath
0.0 0.0 0.0 setrgbcolor
1.0 setlinewidth
10.0 setmiterlimit
1 setlinejoin
1 setlinecap
[ ] 0 setdash
newpath
107.2470472440945 -2.4094488188976384 moveto
110.09940944881892 -2.4094488188976384 lineto
110.09940944881892 -2.976377952755906 lineto
107.9202755905512 -2.976377952755906 lineto
107.9202755905512 -4.437992125984253 lineto
109.88681102362207 -4.437992125984253 lineto
109.88681102362207 -5.00492125984252 lineto
107.9202755905512 -5.00492125984252 lineto
107.9202755905512 -7.370078740157481 lineto
107.2470472440945 -7.370078740157481 lineto
107.2470472440945 -2.4094488188976384 lineto
closepath
fill
newpath
0.0 0.0 0.0 setrgbcolor
1.0 setlinewidth
10.0 setmiterlimit
1 setlinejoin
1 setlinecap
[ ] 0 setdash
newpath
82.39370078740156 -48.56692913385834 moveto
82.39370078740156 -49.506248078452444 81.63223233042086 -50.26771653543314 80.69291338582676 -50.26771653543314 curveto
79.75359444123266 -50.26771653543314 78.99212598425196 -49.506248078452444 78.99212598425196 -48.56692913385834 curveto
78.99212598425196 -47.62761018926423 79.75359444123266 -46.86614173228353 80.69291338582676 -46.86614173228353 curveto
81.63223233042086 -46.86614173228353 82.39370078740156 -47.62761018926423 82.39370078740156 -48.56692913385834 curveto
closepath
fill
newpath
0.0 0.0 0.0 setrgbcolor
1.0 setlinewidth
10.0 setmiterlimit
1 setlinejoin
1 setlinecap
[ ] 0 setdash
newpath
82.39370078740156 -48.56692913385834 moveto
82.39370078740156 -49.506248078452444 81.63223233042086 -50.26771653543314 80.69291338582676 -50.26771653543314 curveto
79.75359444123266 -50.26771653543314 78.99212598425196 -49.506248078452444 78.99212598425196 -48.56692913385834 curveto
78.99212598425196 -47.62761018926423 79.75359444123266 -46.86614173228353 80.69291338582676 -46.86614173228353 curveto
81.63223233042086 -46.86614173228353 82.39370078740156 -47.62761018926423 82.39370078740156 -48.56692913385834 curveto
closepath
stroke
newpath
0.0 0.0 0.0 setrgbcolor
1.0 setlinewidth
10.0 setmiterlimit
1 setlinejoin
1 setlinecap
[ ] 0 setdash
newpath
80.60137795275593 -39.259842519685044 moveto
81.60236220472443 -39.259842519685044 lineto
82.86909448818899 -42.634842519685044 lineto
84.14468503937009 -39.259842519685044 lineto
85.14566929133859 -39.259842519685044 lineto
85.14566929133859 -44.22047244094489 lineto
84.49015748031498 -44.22047244094489 lineto
84.49015748031498 -39.86220472440946 lineto
83.20570866141733 -43.263779527559066 lineto
82.53248031496065 -43.263779527559066 lineto
81.25688976377954 -39.86220472440946 lineto
81.25688976377954 -44.22047244094489 lineto
80.60137795275593 -44.22047244094489 lineto
80.60137795275593 -39.259842519685044 lineto
closepath
fill
newpath
0.0 0.0 0.0 setrgbcolor
1.0 setlinewidth
10.0 setmiterlimit
1 setlinejoin
1 setlinecap
[ ] 0 setdash
newpath
72.94488188976378 -29.669291338582735 moveto
72.94488188976378 -30.608610283176844 72.18341343278308 -31.37007874015754 71.24409448818898 -31.37007874015754 curveto
70.30477554359487 -31.37007874015754 69.54330708661418 -30.608610283176844 69.54330708661418 -29.669291338582735 curveto
69.54330708661418 -28.72997239398863 70.30477554359487 -27.968503937007934 71.24409448818898 -27.968503937007934 curveto
72.18341343278308 -27.968503937007934 72.94488188976378 -28.72997239398863 72.94488188976378 -29.669291338582735 curveto
closepath
fill
newpath
0.0 0.0 0.0 setrgbcolor
1.0 setlinewidth
10.0 setmiterlimit
1 setlinejoin
1 setlinecap
[ ] 0 setdash
newpath
72.94488188976378 -29.669291338582735 moveto
72.94488188976378 -30.608610283176844 72.18341343278308 -31.37007874015754 71.24409448818898 -31.37007874015754 curveto
70.30477554359487 -31.37007874015754 69.54330708661418 -30.608610283176844 69.54330708661418 -29.669291338582735 curveto
69.54330708661418 -28.72997239398863 70.30477554359487 -27.968503937007934 71.24409448818898 -27.968503937007934 curveto
72.18341343278308 -27.968503937007934 72.94488188976378 -28.72997239398863 72.94488188976378 -29.669291338582735 curveto
closepath
stroke
newpath
0.0 0.0 0.0 setrgbcolor
1.0 setlinewidth
10.0 setmiterlimit
1 setlinejoin
1 setlinecap
[ ] 0 setdash
newpath
71.53051181102363 -19.417322834645674 moveto
72.43405511811025 -19.417322834645674 lineto
74.63976377952757 -23.562992125984255 lineto
74.63976377952757 -19.417322834645674 lineto
75.28641732283467 -19.417322834645674 lineto
75.28641732283467 -24.377952755905515 lineto
74.38287401574804 -24.377952755905515 lineto
72.18602362204726 -20.232283464566933 lineto
72.18602362204726 -24.377952755905515 lineto
71.53051181102363 -24.377952755905515 lineto
71.53051181102363 -19.417322834645674 lineto
closepath
fill
newpath
grestore
grestore
showpage

%%EOF